src/counters/modulo/tb_mod_cnt10.vcd
$date
  Thu Mar 14 09:19:39 2019
$end
$version
  GHDL v0
$end
$timescale
  1 fs
$end
$var reg 1 ! i_clk $end
$var reg 1 " i_rst $end
$var reg 1 # i_ce $end
$var reg 1 $ i_dir $end
$var reg 4 % o_bcd[3:0] $end
$var reg 1 & o_tc $end
$var reg 1 ' o_rc $end
$var reg 1 ( end_of_sim $end
$scope module uut $end
$var reg 1 ) i_clk $end
$var reg 1 * i_rst $end
$var reg 1 + i_ce $end
$var reg 1 , i_dir $end
$var reg 4 - o_bcd[3:0] $end
$var reg 1 . o_tc $end
$var reg 1 / o_rc $end
$var reg 1 0 s_tc $end
$var reg 4 1 s_j[3:0] $end
$var reg 4 2 s_k[3:0] $end
$var reg 4 3 r_q[3:0] $end
$scope module g0(0) $end
$scope module ux $end
$var reg 1 4 i_clk $end
$var reg 1 5 i_rst $end
$var reg 1 6 i_ce $end
$var reg 1 7 i_j $end
$var reg 1 8 i_k $end
$var reg 1 9 o_q $end
$var reg 1 : r_q $end
$var reg 2 ; s_jk[1:0] $end
$upscope $end
$upscope $end
$scope module g0(1) $end
$scope module ux $end
$var reg 1 < i_clk $end
$var reg 1 = i_rst $end
$var reg 1 > i_ce $end
$var reg 1 ? i_j $end
$var reg 1 @ i_k $end
$var reg 1 A o_q $end
$var reg 1 B r_q $end
$var reg 2 C s_jk[1:0] $end
$upscope $end
$upscope $end
$scope module g0(2) $end
$scope module ux $end
$var reg 1 D i_clk $end
$var reg 1 E i_rst $end
$var reg 1 F i_ce $end
$var reg 1 G i_j $end
$var reg 1 H i_k $end
$var reg 1 I o_q $end
$var reg 1 J r_q $end
$var reg 2 K s_jk[1:0] $end
$upscope $end
$upscope $end
$scope module g0(3) $end
$scope module ux $end
$var reg 1 L i_clk $end
$var reg 1 M i_rst $end
$var reg 1 N i_ce $end
$var reg 1 O i_j $end
$var reg 1 P i_k $end
$var reg 1 Q o_q $end
$var reg 1 R r_q $end
$var reg 2 S s_jk[1:0] $end
$upscope $end
$upscope $end
$upscope $end
$enddefinitions $end
#0
0!
1"
1#
1$
bUUUU %
0&
0'
0(
0)
1*
1+
1,
bUUUU -
0.
0/
00
bUUU1 1
bUUU1 2
bUUUU 3
04
15
16
17
18
U9
U:
b11 ;
0<
1=
1>
U?
U@
UA
UB
bUU C
0D
1E
1F
UG
UH
UI
UJ
bUU K
0L
1M
1N
UO
UP
UQ
UR
bUU S
#5000000
1!
b0000 %
1)
b0000 -
b0001 1
b0001 2
b0000 3
14
09
0:
1<
0?
0@
0A
0B
b00 C
1D
0G
0H
0I
0J
b00 K
1L
0O
0P
0Q
0R
b00 S
#10000000
0!
0)
04
0<
0D
0L
#15000000
1!
1)
14
1<
1D
1L
#20000000
0!
0)
04
0<
0D
0L
#25000000
1!
1)
14
1<
1D
1L
#30000000
0!
0)
04
0<
0D
0L
#35000000
1!
1)
14
1<
1D
1L
#40000000
0!
0)
04
0<
0D
0L
#45000000
1!
1)
14
1<
1D
1L
#50000000
0!
0"
0)
0*
04
05
0<
0=
0D
0E
0L
0M
#55000000
1!
b0001 %
1)
b0001 -
b0011 1
b0011 2
b0001 3
14
19
1:
1<
1?
1@
b11 C
1D
1L
#60000000
0!
0)
04
0<
0D
0L
#65000000
1!
b0010 %
1)
b0010 -
b0001 1
b0001 2
b0010 3
14
09
0:
1<
0?
0@
1A
1B
b00 C
1D
1L
#70000000
0!
0)
04
0<
0D
0L
#75000000
1!
b0011 %
1)
b0011 -
b0111 1
b0111 2
b0011 3
14
19
1:
1<
1?
1@
b11 C
1D
1G
1H
b11 K
1L
#80000000
0!
0)
04
0<
0D
0L
#85000000
1!
b0100 %
1)
b0100 -
b0001 1
b0001 2
b0100 3
14
09
0:
1<
0?
0@
0A
0B
b00 C
1D
0G
0H
1I
1J
b00 K
1L
#90000000
0!
0)
04
0<
0D
0L
#95000000
1!
b0101 %
1)
b0101 -
b0011 1
b0011 2
b0101 3
14
19
1:
1<
1?
1@
b11 C
1D
1L
#100000000
0!
0)
04
0<
0D
0L
#105000000
1!
b0110 %
1)
b0110 -
b0001 1
b0001 2
b0110 3
14
09
0:
1<
0?
0@
1A
1B
b00 C
1D
1L
#110000000
0!
0)
04
0<
0D
0L
#115000000
1!
b0111 %
1)
b0111 -
b1111 1
b1111 2
b0111 3
14
19
1:
1<
1?
1@
b11 C
1D
1G
1H
b11 K
1L
1O
1P
b11 S
#120000000
0!
0)
04
0<
0D
0L
#125000000
1!
b1000 %
1)
b1000 -
b0001 1
b0001 2
b1000 3
14
09
0:
1<
0?
0@
0A
0B
b00 C
1D
0G
0H
0I
0J
b00 K
1L
0O
0P
1Q
1R
b00 S
#130000000
0!
0)
04
0<
0D
0L
#135000000
1!
b1001 %
1&
1'
1)
b1001 -
1.
1/
10
b1001 1
b1001 2
b1001 3
14
19
1:
1<
1D
1L
1O
1P
b11 S
#140000000
0!
0)
04
0<
0D
0L
#145000000
1!
b0000 %
0&
0'
1)
b0000 -
0.
0/
00
b0001 1
b0001 2
b0000 3
14
09
0:
1<
1D
1L
0O
0P
0Q
0R
b00 S
#150000000
0!
0)
04
0<
0D
0L
#155000000
1!
b0001 %
1)
b0001 -
b0011 1
b0011 2
b0001 3
14
19
1:
1<
1?
1@
b11 C
1D
1L
#160000000
0!
0)
04
0<
0D
0L
#165000000
1!
b0010 %
1)
b0010 -
b0001 1
b0001 2
b0010 3
14
09
0:
1<
0?
0@
1A
1B
b00 C
1D
1L
#170000000
0!
0)
04
0<
0D
0L
#175000000
1!
b0011 %
1)
b0011 -
b0111 1
b0111 2
b0011 3
14
19
1:
1<
1?
1@
b11 C
1D
1G
1H
b11 K
1L
#180000000
0!
0)
04
0<
0D
0L
#185000000
1!
b0100 %
1)
b0100 -
b0001 1
b0001 2
b0100 3
14
09
0:
1<
0?
0@
0A
0B
b00 C
1D
0G
0H
1I
1J
b00 K
1L
#190000000
0!
0)
04
0<
0D
0L
#195000000
1!
b0101 %
1)
b0101 -
b0011 1
b0011 2
b0101 3
14
19
1:
1<
1?
1@
b11 C
1D
1L
#200000000
0!
0$
0)
0,
b0001 1
b0001 2
04
0<
0?
0@
b00 C
0D
0L
#205000000
1!
b0100 %
1)
b0100 -
b0111 1
b0111 2
b0100 3
14
09
0:
1<
1?
1@
b11 C
1D
1G
1H
b11 K
1L
#210000000
0!
0)
04
0<
0D
0L
#215000000
1!
b0011 %
1)
b0011 -
b0001 1
b0001 2
b0011 3
14
19
1:
1<
0?
0@
1A
1B
b00 C
1D
0G
0H
0I
0J
b00 K
1L
#220000000
0!
0)
04
0<
0D
0L
#225000000
1!
b0010 %
1)
b0010 -
b0011 1
b0011 2
b0010 3
14
09
0:
1<
1?
1@
b11 C
1D
1L
#230000000
0!
0)
04
0<
0D
0L
#235000000
1!
b0001 %
1)
b0001 -
b0001 1
b0001 2
b0001 3
14
19
1:
1<
0?
0@
0A
0B
b00 C
1D
1L
#240000000
0!
0)
04
0<
0D
0L
#245000000
1!
b0000 %
1&
1'
1)
b0000 -
1.
1/
10
b1001 1
b1001 2
b0000 3
14
09
0:
1<
1D
1L
1O
1P
b11 S
#250000000
0!
0)
04
0<
0D
0L
#255000000
1!
b1001 %
0&
0'
1)
b1001 -
0.
0/
00
b0001 1
b0001 2
b1001 3
14
19
1:
1<
1D
1L
0O
0P
1Q
1R
b00 S
#260000000
0!
0)
04
0<
0D
0L
#265000000
1!
b1000 %
1)
b1000 -
b1111 1
b1111 2
b1000 3
14
09
0:
1<
1?
1@
b11 C
1D
1G
1H
b11 K
1L
1O
1P
b11 S
#270000000
0!
0)
04
0<
0D
0L
#275000000
1!
b0111 %
1)
b0111 -
b0001 1
b0001 2
b0111 3
14
19
1:
1<
0?
0@
1A
1B
b00 C
1D
0G
0H
1I
1J
b00 K
1L
0O
0P
0Q
0R
b00 S
#280000000
0!
0)
04
0<
0D
0L
#285000000
1!
b0110 %
1)
b0110 -
b0011 1
b0011 2
b0110 3
14
09
0:
1<
1?
1@
b11 C
1D
1L
#290000000
0!
0)
04
0<
0D
0L
#295000000
1!
b0101 %
1)
b0101 -
b0001 1
b0001 2
b0101 3
14
19
1:
1<
0?
0@
0A
0B
b00 C
1D
1L
#300000000
0!
0)
04
0<
0D
0L
#305000000
1!
b0100 %
1)
b0100 -
b0111 1
b0111 2
b0100 3
14
09
0:
1<
1?
1@
b11 C
1D
1G
1H
b11 K
1L
#310000000
0!
0)
04
0<
0D
0L
#315000000
1!
b0011 %
1)
b0011 -
b0001 1
b0001 2
b0011 3
14
19
1:
1<
0?
0@
1A
1B
b00 C
1D
0G
0H
0I
0J
b00 K
1L
#320000000
0!
0)
04
0<
0D
0L
#325000000
1!
b0010 %
1)
b0010 -
b0011 1
b0011 2
b0010 3
14
09
0:
1<
1?
1@
b11 C
1D
1L
#330000000
0!
0)
04
0<
0D
0L
#335000000
1!
b0001 %
1)
b0001 -
b0001 1
b0001 2
b0001 3
14
19
1:
1<
0?
0@
0A
0B
b00 C
1D
1L
#340000000
0!
0)
04
0<
0D
0L
#345000000
1!
b0000 %
1&
1'
1)
b0000 -
1.
1/
10
b1001 1
b1001 2
b0000 3
14
09
0:
1<
1D
1L
1O
1P
b11 S
#350000000
0!
1(
0)
04
0<
0D
0L
#355000000
1!
b1001 %
0&
0'
1)
b1001 -
0.
0/
00
b0001 1
b0001 2
b1001 3
14
19
1:
1<
1D
1L
0O
0P
1Q
1R
b00 S
