src/counters/modulo/tb_mod_cnt6.vcd
$date
  Thu Mar 14 09:19:32 2019
$end
$version
  GHDL v0
$end
$timescale
  1 fs
$end
$var reg 1 ! i_clk $end
$var reg 1 " i_rst $end
$var reg 1 # i_ce $end
$var reg 1 $ i_dir $end
$var reg 3 % o_bcd[2:0] $end
$var reg 1 & o_tc $end
$var reg 1 ' o_rc $end
$var reg 1 ( end_of_sim $end
$scope module uut $end
$var reg 1 ) i_clk $end
$var reg 1 * i_rst $end
$var reg 1 + i_ce $end
$var reg 1 , i_dir $end
$var reg 3 - o_bcd[2:0] $end
$var reg 1 . o_tc $end
$var reg 1 / o_rc $end
$var reg 1 0 s_tc $end
$var reg 3 1 s_j[2:0] $end
$var reg 3 2 s_k[2:0] $end
$var reg 3 3 r_q[2:0] $end
$scope module g0(0) $end
$scope module ux $end
$var reg 1 4 i_clk $end
$var reg 1 5 i_rst $end
$var reg 1 6 i_ce $end
$var reg 1 7 i_j $end
$var reg 1 8 i_k $end
$var reg 1 9 o_q $end
$var reg 1 : r_q $end
$var reg 2 ; s_jk[1:0] $end
$upscope $end
$upscope $end
$scope module g0(1) $end
$scope module ux $end
$var reg 1 < i_clk $end
$var reg 1 = i_rst $end
$var reg 1 > i_ce $end
$var reg 1 ? i_j $end
$var reg 1 @ i_k $end
$var reg 1 A o_q $end
$var reg 1 B r_q $end
$var reg 2 C s_jk[1:0] $end
$upscope $end
$upscope $end
$scope module g0(2) $end
$scope module ux $end
$var reg 1 D i_clk $end
$var reg 1 E i_rst $end
$var reg 1 F i_ce $end
$var reg 1 G i_j $end
$var reg 1 H i_k $end
$var reg 1 I o_q $end
$var reg 1 J r_q $end
$var reg 2 K s_jk[1:0] $end
$upscope $end
$upscope $end
$upscope $end
$enddefinitions $end
#0
0!
1"
1#
1$
bUUU %
0&
0'
0(
0)
1*
1+
1,
bUUU -
0.
0/
00
bUU1 1
bUU1 2
bUUU 3
04
15
16
17
18
U9
U:
b11 ;
0<
1=
1>
U?
U@
UA
UB
bUU C
0D
1E
1F
UG
UH
UI
UJ
bUU K
#5000000
1!
b000 %
1)
b000 -
b001 1
b001 2
b000 3
14
09
0:
1<
0?
0@
0A
0B
b00 C
1D
0G
0H
0I
0J
b00 K
#10000000
0!
0)
04
0<
0D
#15000000
1!
1)
14
1<
1D
#20000000
0!
0)
04
0<
0D
#25000000
1!
1)
14
1<
1D
#30000000
0!
0)
04
0<
0D
#35000000
1!
1)
14
1<
1D
#40000000
0!
0)
04
0<
0D
#45000000
1!
1)
14
1<
1D
#50000000
0!
0"
0)
0*
04
05
0<
0=
0D
0E
#55000000
1!
b001 %
1)
b001 -
b011 1
b011 2
b001 3
14
19
1:
1<
1?
1@
b11 C
1D
#60000000
0!
0)
04
0<
0D
#65000000
1!
b010 %
1)
b010 -
b001 1
b001 2
b010 3
14
09
0:
1<
0?
0@
1A
1B
b00 C
1D
#70000000
0!
0)
04
0<
0D
#75000000
1!
b011 %
1)
b011 -
b111 1
b111 2
b011 3
14
19
1:
1<
1?
1@
b11 C
1D
1G
1H
b11 K
#80000000
0!
0)
04
0<
0D
#85000000
1!
b100 %
1)
b100 -
b001 1
b001 2
b100 3
14
09
0:
1<
0?
0@
0A
0B
b00 C
1D
0G
0H
1I
1J
b00 K
#90000000
0!
0)
04
0<
0D
#95000000
1!
b101 %
1&
1'
1)
b101 -
1.
1/
10
b101 1
b101 2
b101 3
14
19
1:
1<
1D
1G
1H
b11 K
#100000000
0!
0)
04
0<
0D
#105000000
1!
b000 %
0&
0'
1)
b000 -
0.
0/
00
b001 1
b001 2
b000 3
14
09
0:
1<
1D
0G
0H
0I
0J
b00 K
#110000000
0!
0)
04
0<
0D
#115000000
1!
b001 %
1)
b001 -
b011 1
b011 2
b001 3
14
19
1:
1<
1?
1@
b11 C
1D
#120000000
0!
0)
04
0<
0D
#125000000
1!
b010 %
1)
b010 -
b001 1
b001 2
b010 3
14
09
0:
1<
0?
0@
1A
1B
b00 C
1D
#130000000
0!
0)
04
0<
0D
#135000000
1!
b011 %
1)
b011 -
b111 1
b111 2
b011 3
14
19
1:
1<
1?
1@
b11 C
1D
1G
1H
b11 K
#140000000
0!
0)
04
0<
0D
#145000000
1!
b100 %
1)
b100 -
b001 1
b001 2
b100 3
14
09
0:
1<
0?
0@
0A
0B
b00 C
1D
0G
0H
1I
1J
b00 K
#150000000
0!
0)
04
0<
0D
#155000000
1!
b101 %
1&
1'
1)
b101 -
1.
1/
10
b101 1
b101 2
b101 3
14
19
1:
1<
1D
1G
1H
b11 K
#160000000
0!
0)
04
0<
0D
#165000000
1!
b000 %
0&
0'
1)
b000 -
0.
0/
00
b001 1
b001 2
b000 3
14
09
0:
1<
1D
0G
0H
0I
0J
b00 K
#170000000
0!
0)
04
0<
0D
#175000000
1!
b001 %
1)
b001 -
b011 1
b011 2
b001 3
14
19
1:
1<
1?
1@
b11 C
1D
#180000000
0!
0)
04
0<
0D
#185000000
1!
b010 %
1)
b010 -
b001 1
b001 2
b010 3
14
09
0:
1<
0?
0@
1A
1B
b00 C
1D
#190000000
0!
0)
04
0<
0D
#195000000
1!
b011 %
1)
b011 -
b111 1
b111 2
b011 3
14
19
1:
1<
1?
1@
b11 C
1D
1G
1H
b11 K
#200000000
0!
0$
0)
0,
b001 1
b001 2
04
0<
0?
0@
b00 C
0D
0G
0H
b00 K
#205000000
1!
b010 %
1)
b010 -
b011 1
b011 2
b010 3
14
09
0:
1<
1?
1@
b11 C
1D
#210000000
0!
0)
04
0<
0D
#215000000
1!
b001 %
1)
b001 -
b001 1
b001 2
b001 3
14
19
1:
1<
0?
0@
0A
0B
b00 C
1D
#220000000
0!
0)
04
0<
0D
#225000000
1!
b000 %
1&
1'
1)
b000 -
1.
1/
10
b101 1
b101 2
b000 3
14
09
0:
1<
1D
1G
1H
b11 K
#230000000
0!
0)
04
0<
0D
#235000000
1!
b101 %
0&
0'
1)
b101 -
0.
0/
00
b001 1
b001 2
b101 3
14
19
1:
1<
1D
0G
0H
1I
1J
b00 K
#240000000
0!
0)
04
0<
0D
#245000000
1!
b100 %
1)
b100 -
b111 1
b111 2
b100 3
14
09
0:
1<
1?
1@
b11 C
1D
1G
1H
b11 K
#250000000
0!
0)
04
0<
0D
#255000000
1!
b011 %
1)
b011 -
b001 1
b001 2
b011 3
14
19
1:
1<
0?
0@
1A
1B
b00 C
1D
0G
0H
0I
0J
b00 K
#260000000
0!
0)
04
0<
0D
#265000000
1!
b010 %
1)
b010 -
b011 1
b011 2
b010 3
14
09
0:
1<
1?
1@
b11 C
1D
#270000000
0!
0)
04
0<
0D
#275000000
1!
b001 %
1)
b001 -
b001 1
b001 2
b001 3
14
19
1:
1<
0?
0@
0A
0B
b00 C
1D
#280000000
0!
0)
04
0<
0D
#285000000
1!
b000 %
1&
1'
1)
b000 -
1.
1/
10
b101 1
b101 2
b000 3
14
09
0:
1<
1D
1G
1H
b11 K
#290000000
0!
0)
04
0<
0D
#295000000
1!
b101 %
0&
0'
1)
b101 -
0.
0/
00
b001 1
b001 2
b101 3
14
19
1:
1<
1D
0G
0H
1I
1J
b00 K
#300000000
0!
0)
04
0<
0D
#305000000
1!
b100 %
1)
b100 -
b111 1
b111 2
b100 3
14
09
0:
1<
1?
1@
b11 C
1D
1G
1H
b11 K
#310000000
0!
0)
04
0<
0D
#315000000
1!
b011 %
1)
b011 -
b001 1
b001 2
b011 3
14
19
1:
1<
0?
0@
1A
1B
b00 C
1D
0G
0H
0I
0J
b00 K
#320000000
0!
0)
04
0<
0D
#325000000
1!
b010 %
1)
b010 -
b011 1
b011 2
b010 3
14
09
0:
1<
1?
1@
b11 C
1D
#330000000
0!
0)
04
0<
0D
#335000000
1!
b001 %
1)
b001 -
b001 1
b001 2
b001 3
14
19
1:
1<
0?
0@
0A
0B
b00 C
1D
#340000000
0!
0)
04
0<
0D
#345000000
1!
b000 %
1&
1'
1)
b000 -
1.
1/
10
b101 1
b101 2
b000 3
14
09
0:
1<
1D
1G
1H
b11 K
#350000000
0!
1(
0)
04
0<
0D
#355000000
1!
b101 %
0&
0'
1)
b101 -
0.
0/
00
b001 1
b001 2
b101 3
14
19
1:
1<
1D
0G
0H
1I
1J
b00 K
