src/memory/ram_dp/tb_ram_dp.vcd
$date
  Thu Mar 14 09:50:32 2019
$end
$version
  GHDL v0
$end
$timescale
  1 fs
$end
$var reg 1 ! i_wr_clk $end
$var reg 1 " i_wr_ce $end
$var reg 1 # i_wr_en $end
$var reg 8 $ i_wr_addr[7:0] $end
$var reg 16 % i_wr_data[15:0] $end
$var reg 1 & i_rd_clk $end
$var reg 1 ' i_rd_ce $end
$var reg 1 ( i_rd_en $end
$var reg 8 ) i_rd_addr[7:0] $end
$var reg 16 * o_rd_data[15:0] $end
$var reg 1 + end_of_sim $end
$scope module uut $end
$var reg 1 , i_wr_clk $end
$var reg 1 - i_wr_ce $end
$var reg 1 . i_wr_en $end
$var reg 8 / i_wr_addr[7:0] $end
$var reg 16 0 i_wr_data[15:0] $end
$var reg 1 1 i_rd_clk $end
$var reg 1 2 i_rd_ce $end
$var reg 1 3 i_rd_en $end
$var reg 8 4 i_rd_addr[7:0] $end
$var reg 16 5 o_rd_data[15:0] $end
$comment ram is not handled $end
$upscope $end
$enddefinitions $end
#0
0!
0"
0#
b00000000 $
b0000000000000000 %
0&
0'
0(
b00000000 )
bUUUUUUUUUUUUUUUU *
0+
0,
0-
0.
b00000000 /
b0000000000000000 0
01
02
03
b00000000 4
bUUUUUUUUUUUUUUUU 5
#20000000
1!
1&
1,
11
#40000000
0!
1"
1#
0&
1'
1(
0,
1-
1.
01
12
13
#60000000
1!
1&
b0000000000000000 *
1,
11
b0000000000000000 5
#80000000
0!
0#
0&
0,
0.
01
#100000000
1!
1&
1,
11
#120000000
0!
1#
b00000001 $
b0000000000000010 %
0&
b00000001 )
0,
1.
b00000001 /
b0000000000000010 0
01
b00000001 4
#140000000
1!
1&
b0000000000010000 *
1,
11
b0000000000010000 5
#160000000
0!
0#
0&
0,
0.
01
#180000000
1!
1&
b0000000000000010 *
1,
11
b0000000000000010 5
#200000000
0!
1#
b00000010 $
b0000000000000100 %
0&
b00000010 )
0,
1.
b00000010 /
b0000000000000100 0
01
b00000010 4
#220000000
1!
1&
b0000000000100000 *
1,
11
b0000000000100000 5
#240000000
0!
0#
0&
0,
0.
01
#260000000
1!
1&
b0000000000000100 *
1,
11
b0000000000000100 5
#280000000
0!
1#
b00000011 $
b0000000000000101 %
0&
b00000011 )
0,
1.
b00000011 /
b0000000000000101 0
01
b00000011 4
#300000000
1!
1&
b0000000000110000 *
1,
11
b0000000000110000 5
#320000000
0!
0#
0&
0,
0.
01
#340000000
1!
1&
b0000000000000101 *
1,
11
b0000000000000101 5
#360000000
0!
1#
b00000100 $
b0000000000000111 %
0&
b00000100 )
0,
1.
b00000100 /
b0000000000000111 0
01
b00000100 4
#380000000
1!
1&
b0000000001000000 *
1,
11
b0000000001000000 5
#400000000
0!
0#
0&
0,
0.
01
#420000000
1!
1&
b0000000000000111 *
1,
11
b0000000000000111 5
#440000000
0!
1#
b00000101 $
b0000000000001001 %
0&
b00000101 )
0,
1.
b00000101 /
b0000000000001001 0
01
b00000101 4
#460000000
1!
1&
b0000000001010000 *
1,
11
b0000000001010000 5
#480000000
0!
0#
0&
0,
0.
01
#500000000
1!
1&
b0000000000001001 *
1,
11
b0000000000001001 5
#520000000
0!
1#
b00000110 $
b0000000000001011 %
0&
b00000110 )
0,
1.
b00000110 /
b0000000000001011 0
01
b00000110 4
#540000000
1!
1&
b0000000001100000 *
1,
11
b0000000001100000 5
#560000000
0!
0#
0&
0,
0.
01
#580000000
1!
1&
b0000000000001011 *
1,
11
b0000000000001011 5
#600000000
0!
1#
b00000111 $
b0000000000001100 %
0&
b00000111 )
0,
1.
b00000111 /
b0000000000001100 0
01
b00000111 4
#620000000
1!
1&
b0000000001110000 *
1,
11
b0000000001110000 5
#640000000
0!
0#
0&
0,
0.
01
#660000000
1!
1&
b0000000000001100 *
1,
11
b0000000000001100 5
#680000000
0!
1#
b00001000 $
b0000000000001110 %
0&
b00001000 )
0,
1.
b00001000 /
b0000000000001110 0
01
b00001000 4
#700000000
1!
1&
b0000000010000000 *
1,
11
b0000000010000000 5
#720000000
0!
0#
0&
0,
0.
01
#740000000
1!
1&
b0000000000001110 *
1,
11
b0000000000001110 5
#760000000
0!
1#
b00001001 $
b0000000000010000 %
0&
b00001001 )
0,
1.
b00001001 /
b0000000000010000 0
01
b00001001 4
#780000000
1!
1&
b0000000010010001 *
1,
11
b0000000010010001 5
#800000000
0!
0#
0&
0,
0.
01
#820000000
1!
1&
b0000000000010000 *
1,
11
b0000000000010000 5
#840000000
0!
1#
b00001010 $
b0000000000010010 %
0&
b00001010 )
0,
1.
b00001010 /
b0000000000010010 0
01
b00001010 4
#860000000
1!
1&
b0000000010100001 *
1,
11
b0000000010100001 5
#880000000
0!
0#
0&
0,
0.
01
#900000000
1!
1&
b0000000000010010 *
1,
11
b0000000000010010 5
#920000000
0!
1#
b00001011 $
b0000000000010100 %
0&
b00001011 )
0,
1.
b00001011 /
b0000000000010100 0
01
b00001011 4
#940000000
1!
1&
b0000000010110001 *
1,
11
b0000000010110001 5
#960000000
0!
0#
0&
0,
0.
01
#980000000
1!
1&
b0000000000010100 *
1,
11
b0000000000010100 5
#1000000000
0!
1#
b00001100 $
b0000000000010101 %
0&
b00001100 )
0,
1.
b00001100 /
b0000000000010101 0
01
b00001100 4
#1020000000
1!
1&
b0000000011000001 *
1,
11
b0000000011000001 5
#1040000000
0!
0#
0&
0,
0.
01
#1060000000
1!
1&
b0000000000010101 *
1,
11
b0000000000010101 5
#1080000000
0!
1#
b00001101 $
b0000000000010111 %
0&
b00001101 )
0,
1.
b00001101 /
b0000000000010111 0
01
b00001101 4
#1100000000
1!
1&
b0000000011010001 *
1,
11
b0000000011010001 5
#1120000000
0!
0#
0&
0,
0.
01
#1140000000
1!
1&
b0000000000010111 *
1,
11
b0000000000010111 5
#1160000000
0!
1#
b00001110 $
b0000000000011001 %
0&
b00001110 )
0,
1.
b00001110 /
b0000000000011001 0
01
b00001110 4
#1180000000
1!
1&
b0000000011100001 *
1,
11
b0000000011100001 5
#1200000000
0!
0#
0&
0,
0.
01
#1220000000
1!
1&
b0000000000011001 *
1,
11
b0000000000011001 5
#1240000000
0!
1#
b00001111 $
b0000000000011011 %
0&
b00001111 )
0,
1.
b00001111 /
b0000000000011011 0
01
b00001111 4
#1260000000
1!
1&
b0000000011110001 *
1,
11
b0000000011110001 5
#1280000000
0!
0#
0&
0,
0.
01
#1300000000
1!
1&
b0000000000011011 *
1,
11
b0000000000011011 5
#1320000000
0!
1#
b00010000 $
b0000000000011100 %
0&
b00010000 )
0,
1.
b00010000 /
b0000000000011100 0
01
b00010000 4
#1340000000
1!
1&
b0000000100000001 *
1,
11
b0000000100000001 5
#1360000000
0!
0#
0&
0,
0.
01
#1380000000
1!
1&
b0000000000011100 *
1,
11
b0000000000011100 5
#1400000000
0!
1#
b00010001 $
b0000000000011110 %
0&
b00010001 )
0,
1.
b00010001 /
b0000000000011110 0
01
b00010001 4
#1420000000
1!
1&
b0000000100010001 *
1,
11
b0000000100010001 5
#1440000000
0!
0#
0&
0,
0.
01
#1460000000
1!
1&
b0000000000011110 *
1,
11
b0000000000011110 5
#1480000000
0!
1#
b00010010 $
b0000000000100000 %
0&
b00010010 )
0,
1.
b00010010 /
b0000000000100000 0
01
b00010010 4
#1500000000
1!
1&
b0000000100100001 *
1,
11
b0000000100100001 5
#1520000000
0!
0#
0&
0,
0.
01
#1540000000
1!
1&
b0000000000100000 *
1,
11
b0000000000100000 5
#1560000000
0!
1#
b00010011 $
b0000000000100010 %
0&
b00010011 )
0,
1.
b00010011 /
b0000000000100010 0
01
b00010011 4
#1580000000
1!
1&
b0000000100110001 *
1,
11
b0000000100110001 5
#1600000000
0!
0#
0&
0,
0.
01
#1620000000
1!
1&
b0000000000100010 *
1,
11
b0000000000100010 5
#1640000000
0!
1#
b00010100 $
b0000000000100100 %
0&
b00010100 )
0,
1.
b00010100 /
b0000000000100100 0
01
b00010100 4
#1660000000
1!
1&
b0000000101000001 *
1,
11
b0000000101000001 5
#1680000000
0!
0#
0&
0,
0.
01
#1700000000
1!
1&
b0000000000100100 *
1,
11
b0000000000100100 5
#1720000000
0!
1#
b00010101 $
b0000000000100101 %
0&
b00010101 )
0,
1.
b00010101 /
b0000000000100101 0
01
b00010101 4
#1740000000
1!
1&
b0000000101010001 *
1,
11
b0000000101010001 5
#1760000000
0!
0#
0&
0,
0.
01
#1780000000
1!
1&
b0000000000100101 *
1,
11
b0000000000100101 5
#1800000000
0!
1#
b00010110 $
b0000000000100111 %
0&
b00010110 )
0,
1.
b00010110 /
b0000000000100111 0
01
b00010110 4
#1820000000
1!
1&
b0000000101100001 *
1,
11
b0000000101100001 5
#1840000000
0!
0#
0&
0,
0.
01
#1860000000
1!
1&
b0000000000100111 *
1,
11
b0000000000100111 5
#1880000000
0!
1#
b00010111 $
b0000000000101001 %
0&
b00010111 )
0,
1.
b00010111 /
b0000000000101001 0
01
b00010111 4
#1900000000
1!
1&
b0000000101110001 *
1,
11
b0000000101110001 5
#1920000000
0!
0#
0&
0,
0.
01
#1940000000
1!
1&
b0000000000101001 *
1,
11
b0000000000101001 5
#1960000000
0!
1#
b00011000 $
b0000000000101011 %
0&
b00011000 )
0,
1.
b00011000 /
b0000000000101011 0
01
b00011000 4
#1980000000
1!
1&
b0000000110000001 *
1,
11
b0000000110000001 5
#2000000000
0!
0#
0&
0,
0.
01
#2020000000
1!
1&
b0000000000101011 *
1,
11
b0000000000101011 5
#2040000000
0!
1#
b00011001 $
b0000000000101101 %
0&
b00011001 )
0,
1.
b00011001 /
b0000000000101101 0
01
b00011001 4
#2060000000
1!
1&
b0000000110010001 *
1,
11
b0000000110010001 5
#2080000000
0!
0#
0&
0,
0.
01
#2100000000
1!
1&
b0000000000101101 *
1,
11
b0000000000101101 5
#2120000000
0!
1#
b00011010 $
b0000000000101111 %
0&
b00011010 )
0,
1.
b00011010 /
b0000000000101111 0
01
b00011010 4
#2140000000
1!
1&
b0000000110100010 *
1,
11
b0000000110100010 5
#2160000000
0!
0#
0&
0,
0.
01
#2180000000
1!
1&
b0000000000101111 *
1,
11
b0000000000101111 5
#2200000000
0!
1#
b00011011 $
b0000000000110001 %
0&
b00011011 )
0,
1.
b00011011 /
b0000000000110001 0
01
b00011011 4
#2220000000
1!
1&
b0000000110110010 *
1,
11
b0000000110110010 5
#2240000000
0!
0#
0&
0,
0.
01
#2260000000
1!
1&
b0000000000110001 *
1,
11
b0000000000110001 5
#2280000000
0!
1#
b00011100 $
b0000000000110100 %
0&
b00011100 )
0,
1.
b00011100 /
b0000000000110100 0
01
b00011100 4
#2300000000
1!
1&
b0000000111000010 *
1,
11
b0000000111000010 5
#2320000000
0!
0#
0&
0,
0.
01
#2340000000
1!
1&
b0000000000110100 *
1,
11
b0000000000110100 5
#2360000000
0!
1#
b00011101 $
b0000000000110110 %
0&
b00011101 )
0,
1.
b00011101 /
b0000000000110110 0
01
b00011101 4
#2380000000
1!
1&
b0000000111010010 *
1,
11
b0000000111010010 5
#2400000000
0!
0#
0&
0,
0.
01
#2420000000
1!
1&
b0000000000110110 *
1,
11
b0000000000110110 5
#2440000000
0!
1#
b00011110 $
b0000000000111000 %
0&
b00011110 )
0,
1.
b00011110 /
b0000000000111000 0
01
b00011110 4
#2460000000
1!
1&
b0000000111100010 *
1,
11
b0000000111100010 5
#2480000000
0!
0#
0&
0,
0.
01
#2500000000
1!
1&
b0000000000111000 *
1,
11
b0000000000111000 5
#2520000000
0!
1#
b00011111 $
b0000000000111011 %
0&
b00011111 )
0,
1.
b00011111 /
b0000000000111011 0
01
b00011111 4
#2540000000
1!
1&
b0000000111110010 *
1,
11
b0000000111110010 5
#2560000000
0!
0#
0&
0,
0.
01
#2580000000
1!
1&
b0000000000111011 *
1,
11
b0000000000111011 5
#2600000000
0!
1#
b00100000 $
b0000000000111101 %
0&
b00100000 )
0,
1.
b00100000 /
b0000000000111101 0
01
b00100000 4
#2620000000
1!
1&
b0000001000000010 *
1,
11
b0000001000000010 5
#2640000000
0!
0#
0&
0,
0.
01
#2660000000
1!
1&
b0000000000111101 *
1,
11
b0000000000111101 5
#2680000000
0!
1#
b00100001 $
b0000000001000000 %
0&
b00100001 )
0,
1.
b00100001 /
b0000000001000000 0
01
b00100001 4
#2700000000
1!
1&
b0000001000010010 *
1,
11
b0000001000010010 5
#2720000000
0!
0#
0&
0,
0.
01
#2740000000
1!
1&
b0000000001000000 *
1,
11
b0000000001000000 5
#2760000000
0!
1#
b00100010 $
b0000000001000010 %
0&
b00100010 )
0,
1.
b00100010 /
b0000000001000010 0
01
b00100010 4
#2780000000
1!
1&
b0000001000100010 *
1,
11
b0000001000100010 5
#2800000000
0!
0#
0&
0,
0.
01
#2820000000
1!
1&
b0000000001000010 *
1,
11
b0000000001000010 5
#2840000000
0!
1#
b00100011 $
b0000000001000101 %
0&
b00100011 )
0,
1.
b00100011 /
b0000000001000101 0
01
b00100011 4
#2860000000
1!
1&
b0000001000110010 *
1,
11
b0000001000110010 5
#2880000000
0!
0#
0&
0,
0.
01
#2900000000
1!
1&
b0000000001000101 *
1,
11
b0000000001000101 5
#2920000000
0!
1#
b00100100 $
b0000000001001000 %
0&
b00100100 )
0,
1.
b00100100 /
b0000000001001000 0
01
b00100100 4
#2940000000
1!
1&
b0000001001000010 *
1,
11
b0000001001000010 5
#2960000000
0!
0#
0&
0,
0.
01
#2980000000
1!
1&
b0000000001001000 *
1,
11
b0000000001001000 5
#3000000000
0!
1#
b00100101 $
b0000000001001011 %
0&
b00100101 )
0,
1.
b00100101 /
b0000000001001011 0
01
b00100101 4
#3020000000
1!
1&
b0000001001010010 *
1,
11
b0000001001010010 5
#3040000000
0!
0#
0&
0,
0.
01
#3060000000
1!
1&
b0000000001001011 *
1,
11
b0000000001001011 5
#3080000000
0!
1#
b00100110 $
b0000000001001101 %
0&
b00100110 )
0,
1.
b00100110 /
b0000000001001101 0
01
b00100110 4
#3100000000
1!
1&
b0000001001100010 *
1,
11
b0000001001100010 5
#3120000000
0!
0#
0&
0,
0.
01
#3140000000
1!
1&
b0000000001001101 *
1,
11
b0000000001001101 5
#3160000000
0!
1#
b00100111 $
b0000000001010000 %
0&
b00100111 )
0,
1.
b00100111 /
b0000000001010000 0
01
b00100111 4
#3180000000
1!
1&
b0000001001110010 *
1,
11
b0000001001110010 5
#3200000000
0!
0#
0&
0,
0.
01
#3220000000
1!
1&
b0000000001010000 *
1,
11
b0000000001010000 5
#3240000000
0!
1#
b00101000 $
b0000000001010011 %
0&
b00101000 )
0,
1.
b00101000 /
b0000000001010011 0
01
b00101000 4
#3260000000
1!
1&
b0000001010000010 *
1,
11
b0000001010000010 5
#3280000000
0!
0#
0&
0,
0.
01
#3300000000
1!
1&
b0000000001010011 *
1,
11
b0000000001010011 5
#3320000000
0!
1#
b00101001 $
b0000000001010111 %
0&
b00101001 )
0,
1.
b00101001 /
b0000000001010111 0
01
b00101001 4
#3340000000
1!
1&
b0000001010010010 *
1,
11
b0000001010010010 5
#3360000000
0!
0#
0&
0,
0.
01
#3380000000
1!
1&
b0000000001010111 *
1,
11
b0000000001010111 5
#3400000000
0!
1#
b00101010 $
b0000000001011010 %
0&
b00101010 )
0,
1.
b00101010 /
b0000000001011010 0
01
b00101010 4
#3420000000
1!
1&
b0000001010100010 *
1,
11
b0000001010100010 5
#3440000000
0!
0#
0&
0,
0.
01
#3460000000
1!
1&
b0000000001011010 *
1,
11
b0000000001011010 5
#3480000000
0!
1#
b00101011 $
b0000000001011101 %
0&
b00101011 )
0,
1.
b00101011 /
b0000000001011101 0
01
b00101011 4
#3500000000
1!
1&
b0000001010110011 *
1,
11
b0000001010110011 5
#3520000000
0!
0#
0&
0,
0.
01
#3540000000
1!
1&
b0000000001011101 *
1,
11
b0000000001011101 5
#3560000000
0!
1#
b00101100 $
b0000000001100000 %
0&
b00101100 )
0,
1.
b00101100 /
b0000000001100000 0
01
b00101100 4
#3580000000
1!
1&
b0000001011000011 *
1,
11
b0000001011000011 5
#3600000000
0!
0#
0&
0,
0.
01
#3620000000
1!
1&
b0000000001100000 *
1,
11
b0000000001100000 5
#3640000000
0!
1#
b00101101 $
b0000000001100100 %
0&
b00101101 )
0,
1.
b00101101 /
b0000000001100100 0
01
b00101101 4
#3660000000
1!
1&
b0000001011010011 *
1,
11
b0000001011010011 5
#3680000000
0!
0#
0&
0,
0.
01
#3700000000
1!
1&
b0000000001100100 *
1,
11
b0000000001100100 5
#3720000000
0!
1#
b00101110 $
b0000000001100111 %
0&
b00101110 )
0,
1.
b00101110 /
b0000000001100111 0
01
b00101110 4
#3740000000
1!
1&
b0000001011100011 *
1,
11
b0000001011100011 5
#3760000000
0!
0#
0&
0,
0.
01
#3780000000
1!
1&
b0000000001100111 *
1,
11
b0000000001100111 5
#3800000000
0!
1#
b00101111 $
b0000000001101011 %
0&
b00101111 )
0,
1.
b00101111 /
b0000000001101011 0
01
b00101111 4
#3820000000
1!
1&
b0000001011110011 *
1,
11
b0000001011110011 5
#3840000000
0!
0#
0&
0,
0.
01
#3860000000
1!
1&
b0000000001101011 *
1,
11
b0000000001101011 5
#3880000000
0!
1#
b00110000 $
b0000000001101111 %
0&
b00110000 )
0,
1.
b00110000 /
b0000000001101111 0
01
b00110000 4
#3900000000
1!
1&
b0000001100000011 *
1,
11
b0000001100000011 5
#3920000000
0!
0#
0&
0,
0.
01
#3940000000
1!
1&
b0000000001101111 *
1,
11
b0000000001101111 5
#3960000000
0!
1#
b00110001 $
b0000000001110011 %
0&
b00110001 )
0,
1.
b00110001 /
b0000000001110011 0
01
b00110001 4
#3980000000
1!
1&
b0000001100010011 *
1,
11
b0000001100010011 5
#4000000000
0!
0#
0&
0,
0.
01
#4020000000
1!
1&
b0000000001110011 *
1,
11
b0000000001110011 5
#4040000000
0!
1#
b00110010 $
b0000000001110110 %
0&
b00110010 )
0,
1.
b00110010 /
b0000000001110110 0
01
b00110010 4
#4060000000
1!
1&
b0000001100100011 *
1,
11
b0000001100100011 5
#4080000000
0!
0#
0&
0,
0.
01
#4100000000
1!
1&
b0000000001110110 *
1,
11
b0000000001110110 5
#4120000000
0!
1#
b00110011 $
b0000000001111010 %
0&
b00110011 )
0,
1.
b00110011 /
b0000000001111010 0
01
b00110011 4
#4140000000
1!
1&
b0000001100110011 *
1,
11
b0000001100110011 5
#4160000000
0!
0#
0&
0,
0.
01
#4180000000
1!
1&
b0000000001111010 *
1,
11
b0000000001111010 5
#4200000000
0!
1#
b00110100 $
b0000000001111110 %
0&
b00110100 )
0,
1.
b00110100 /
b0000000001111110 0
01
b00110100 4
#4220000000
1!
1&
b0000001101000011 *
1,
11
b0000001101000011 5
#4240000000
0!
0#
0&
0,
0.
01
#4260000000
1!
1&
b0000000001111110 *
1,
11
b0000000001111110 5
#4280000000
0!
1#
b00110101 $
b0000000010000011 %
0&
b00110101 )
0,
1.
b00110101 /
b0000000010000011 0
01
b00110101 4
#4300000000
1!
1&
b0000001101010011 *
1,
11
b0000001101010011 5
#4320000000
0!
0#
0&
0,
0.
01
#4340000000
1!
1&
b0000000010000011 *
1,
11
b0000000010000011 5
#4360000000
0!
1#
b00110110 $
b0000000010000111 %
0&
b00110110 )
0,
1.
b00110110 /
b0000000010000111 0
01
b00110110 4
#4380000000
1!
1&
b0000001101100011 *
1,
11
b0000001101100011 5
#4400000000
0!
0#
0&
0,
0.
01
#4420000000
1!
1&
b0000000010000111 *
1,
11
b0000000010000111 5
#4440000000
0!
1#
b00110111 $
b0000000010001011 %
0&
b00110111 )
0,
1.
b00110111 /
b0000000010001011 0
01
b00110111 4
#4460000000
1!
1&
b0000001101110011 *
1,
11
b0000001101110011 5
#4480000000
0!
0#
0&
0,
0.
01
#4500000000
1!
1&
b0000000010001011 *
1,
11
b0000000010001011 5
#4520000000
0!
1#
b00111000 $
b0000000010010000 %
0&
b00111000 )
0,
1.
b00111000 /
b0000000010010000 0
01
b00111000 4
#4540000000
1!
1&
b0000001110000011 *
1,
11
b0000001110000011 5
#4560000000
0!
0#
0&
0,
0.
01
#4580000000
1!
1&
b0000000010010000 *
1,
11
b0000000010010000 5
#4600000000
0!
1#
b00111001 $
b0000000010010100 %
0&
b00111001 )
0,
1.
b00111001 /
b0000000010010100 0
01
b00111001 4
#4620000000
1!
1&
b0000001110010011 *
1,
11
b0000001110010011 5
#4640000000
0!
0#
0&
0,
0.
01
#4660000000
1!
1&
b0000000010010100 *
1,
11
b0000000010010100 5
#4680000000
0!
1#
b00111010 $
b0000000010011001 %
0&
b00111010 )
0,
1.
b00111010 /
b0000000010011001 0
01
b00111010 4
#4700000000
1!
1&
b0000001110100011 *
1,
11
b0000001110100011 5
#4720000000
0!
0#
0&
0,
0.
01
#4740000000
1!
1&
b0000000010011001 *
1,
11
b0000000010011001 5
#4760000000
0!
1#
b00111011 $
b0000000010011101 %
0&
b00111011 )
0,
1.
b00111011 /
b0000000010011101 0
01
b00111011 4
#4780000000
1!
1&
b0000001110110011 *
1,
11
b0000001110110011 5
#4800000000
0!
0#
0&
0,
0.
01
#4820000000
1!
1&
b0000000010011101 *
1,
11
b0000000010011101 5
#4840000000
0!
1#
b00111100 $
b0000000010100010 %
0&
b00111100 )
0,
1.
b00111100 /
b0000000010100010 0
01
b00111100 4
#4860000000
1!
1&
b0000001111000100 *
1,
11
b0000001111000100 5
#4880000000
0!
0#
0&
0,
0.
01
#4900000000
1!
1&
b0000000010100010 *
1,
11
b0000000010100010 5
#4920000000
0!
1#
b00111101 $
b0000000010100111 %
0&
b00111101 )
0,
1.
b00111101 /
b0000000010100111 0
01
b00111101 4
#4940000000
1!
1&
b0000001111010100 *
1,
11
b0000001111010100 5
#4960000000
0!
0#
0&
0,
0.
01
#4980000000
1!
1&
b0000000010100111 *
1,
11
b0000000010100111 5
#5000000000
0!
1#
b00111110 $
b0000000010101100 %
0&
b00111110 )
0,
1.
b00111110 /
b0000000010101100 0
01
b00111110 4
#5020000000
1!
1&
b0000001111100100 *
1,
11
b0000001111100100 5
#5040000000
0!
0#
0&
0,
0.
01
#5060000000
1!
1&
b0000000010101100 *
1,
11
b0000000010101100 5
#5080000000
0!
1#
b00111111 $
b0000000010110001 %
0&
b00111111 )
0,
1.
b00111111 /
b0000000010110001 0
01
b00111111 4
#5100000000
1!
1&
b0000001111110100 *
1,
11
b0000001111110100 5
#5120000000
0!
0#
0&
0,
0.
01
#5140000000
1!
1&
b0000000010110001 *
1,
11
b0000000010110001 5
#5160000000
0!
1#
b01000000 $
b0000000010110110 %
0&
b01000000 )
0,
1.
b01000000 /
b0000000010110110 0
01
b01000000 4
#5180000000
1!
1&
b0000010000000100 *
1,
11
b0000010000000100 5
#5200000000
0!
0#
0&
0,
0.
01
#5220000000
1!
1&
b0000000010110110 *
1,
11
b0000000010110110 5
#5240000000
0!
1#
b01000001 $
b0000000010111011 %
0&
b01000001 )
0,
1.
b01000001 /
b0000000010111011 0
01
b01000001 4
#5260000000
1!
1&
b0000010000010100 *
1,
11
b0000010000010100 5
#5280000000
0!
0#
0&
0,
0.
01
#5300000000
1!
1&
b0000000010111011 *
1,
11
b0000000010111011 5
#5320000000
0!
1#
b01000010 $
b0000000011000001 %
0&
b01000010 )
0,
1.
b01000010 /
b0000000011000001 0
01
b01000010 4
#5340000000
1!
1&
b0000010000100100 *
1,
11
b0000010000100100 5
#5360000000
0!
0#
0&
0,
0.
01
#5380000000
1!
1&
b0000000011000001 *
1,
11
b0000000011000001 5
#5400000000
0!
1#
b01000011 $
b0000000011000110 %
0&
b01000011 )
0,
1.
b01000011 /
b0000000011000110 0
01
b01000011 4
#5420000000
1!
1&
b0000010000110100 *
1,
11
b0000010000110100 5
#5440000000
0!
0#
0&
0,
0.
01
#5460000000
1!
1&
b0000000011000110 *
1,
11
b0000000011000110 5
#5480000000
0!
1#
b01000100 $
b0000000011001100 %
0&
b01000100 )
0,
1.
b01000100 /
b0000000011001100 0
01
b01000100 4
#5500000000
1!
1&
b0000010001000100 *
1,
11
b0000010001000100 5
#5520000000
0!
0#
0&
0,
0.
01
#5540000000
1!
1&
b0000000011001100 *
1,
11
b0000000011001100 5
#5560000000
0!
1#
b01000101 $
b0000000011010001 %
0&
b01000101 )
0,
1.
b01000101 /
b0000000011010001 0
01
b01000101 4
#5580000000
1!
1&
b0000010001010100 *
1,
11
b0000010001010100 5
#5600000000
0!
0#
0&
0,
0.
01
#5620000000
1!
1&
b0000000011010001 *
1,
11
b0000000011010001 5
#5640000000
0!
1#
b01000110 $
b0000000011010111 %
0&
b01000110 )
0,
1.
b01000110 /
b0000000011010111 0
01
b01000110 4
#5660000000
1!
1&
b0000010001100100 *
1,
11
b0000010001100100 5
#5680000000
0!
0#
0&
0,
0.
01
#5700000000
1!
1&
b0000000011010111 *
1,
11
b0000000011010111 5
#5720000000
0!
1#
b01000111 $
b0000000011011101 %
0&
b01000111 )
0,
1.
b01000111 /
b0000000011011101 0
01
b01000111 4
#5740000000
1!
1&
b0000010001110100 *
1,
11
b0000010001110100 5
#5760000000
0!
0#
0&
0,
0.
01
#5780000000
1!
1&
b0000000011011101 *
1,
11
b0000000011011101 5
#5800000000
0!
1#
b01001000 $
b0000000011100011 %
0&
b01001000 )
0,
1.
b01001000 /
b0000000011100011 0
01
b01001000 4
#5820000000
1!
1&
b0000010010000100 *
1,
11
b0000010010000100 5
#5840000000
0!
0#
0&
0,
0.
01
#5860000000
1!
1&
b0000000011100011 *
1,
11
b0000000011100011 5
#5880000000
0!
1#
b01001001 $
b0000000011101001 %
0&
b01001001 )
0,
1.
b01001001 /
b0000000011101001 0
01
b01001001 4
#5900000000
1!
1&
b0000010010010100 *
1,
11
b0000010010010100 5
#5920000000
0!
0#
0&
0,
0.
01
#5940000000
1!
1&
b0000000011101001 *
1,
11
b0000000011101001 5
#5960000000
0!
1#
b01001010 $
b0000000011101111 %
0&
b01001010 )
0,
1.
b01001010 /
b0000000011101111 0
01
b01001010 4
#5980000000
1!
1&
b0000010010100100 *
1,
11
b0000010010100100 5
#6000000000
0!
0#
0&
0,
0.
01
#6020000000
1!
1&
b0000000011101111 *
1,
11
b0000000011101111 5
#6040000000
0!
1#
b01001011 $
b0000000011110110 %
0&
b01001011 )
0,
1.
b01001011 /
b0000000011110110 0
01
b01001011 4
#6060000000
1!
1&
b0000010010110100 *
1,
11
b0000010010110100 5
#6080000000
0!
0#
0&
0,
0.
01
#6100000000
1!
1&
b0000000011110110 *
1,
11
b0000000011110110 5
#6120000000
0!
1#
b01001100 $
b0000000011111100 %
0&
b01001100 )
0,
1.
b01001100 /
b0000000011111100 0
01
b01001100 4
#6140000000
1!
1&
b0000010011000100 *
1,
11
b0000010011000100 5
#6160000000
0!
0#
0&
0,
0.
01
#6180000000
1!
1&
b0000000011111100 *
1,
11
b0000000011111100 5
#6200000000
0!
1#
b01001101 $
b0000000100000011 %
0&
b01001101 )
0,
1.
b01001101 /
b0000000100000011 0
01
b01001101 4
#6220000000
1!
1&
b0000010011010101 *
1,
11
b0000010011010101 5
#6240000000
0!
0#
0&
0,
0.
01
#6260000000
1!
1&
b0000000100000011 *
1,
11
b0000000100000011 5
#6280000000
0!
1#
b01001110 $
b0000000100001001 %
0&
b01001110 )
0,
1.
b01001110 /
b0000000100001001 0
01
b01001110 4
#6300000000
1!
1&
b0000010011100101 *
1,
11
b0000010011100101 5
#6320000000
0!
0#
0&
0,
0.
01
#6340000000
1!
1&
b0000000100001001 *
1,
11
b0000000100001001 5
#6360000000
0!
1#
b01001111 $
b0000000100010000 %
0&
b01001111 )
0,
1.
b01001111 /
b0000000100010000 0
01
b01001111 4
#6380000000
1!
1&
b0000010011110101 *
1,
11
b0000010011110101 5
#6400000000
0!
0#
0&
0,
0.
01
#6420000000
1!
1&
b0000000100010000 *
1,
11
b0000000100010000 5
#6440000000
0!
1#
b01010000 $
b0000000100010111 %
0&
b01010000 )
0,
1.
b01010000 /
b0000000100010111 0
01
b01010000 4
#6460000000
1!
1&
b0000010100000101 *
1,
11
b0000010100000101 5
#6480000000
0!
0#
0&
0,
0.
01
#6500000000
1!
1&
b0000000100010111 *
1,
11
b0000000100010111 5
#6520000000
0!
1#
b01010001 $
b0000000100011110 %
0&
b01010001 )
0,
1.
b01010001 /
b0000000100011110 0
01
b01010001 4
#6540000000
1!
1&
b0000010100010101 *
1,
11
b0000010100010101 5
#6560000000
0!
0#
0&
0,
0.
01
#6580000000
1!
1&
b0000000100011110 *
1,
11
b0000000100011110 5
#6600000000
0!
1#
b01010010 $
b0000000100100101 %
0&
b01010010 )
0,
1.
b01010010 /
b0000000100100101 0
01
b01010010 4
#6620000000
1!
1&
b0000010100100101 *
1,
11
b0000010100100101 5
#6640000000
0!
0#
0&
0,
0.
01
#6660000000
1!
1&
b0000000100100101 *
1,
11
b0000000100100101 5
#6680000000
0!
1#
b01010011 $
b0000000100101100 %
0&
b01010011 )
0,
1.
b01010011 /
b0000000100101100 0
01
b01010011 4
#6700000000
1!
1&
b0000010100110101 *
1,
11
b0000010100110101 5
#6720000000
0!
0#
0&
0,
0.
01
#6740000000
1!
1&
b0000000100101100 *
1,
11
b0000000100101100 5
#6760000000
0!
1#
b01010100 $
b0000000100110100 %
0&
b01010100 )
0,
1.
b01010100 /
b0000000100110100 0
01
b01010100 4
#6780000000
1!
1&
b0000010101000101 *
1,
11
b0000010101000101 5
#6800000000
0!
0#
0&
0,
0.
01
#6820000000
1!
1&
b0000000100110100 *
1,
11
b0000000100110100 5
#6840000000
0!
1#
b01010101 $
b0000000100111011 %
0&
b01010101 )
0,
1.
b01010101 /
b0000000100111011 0
01
b01010101 4
#6860000000
1!
1&
b0000010101010101 *
1,
11
b0000010101010101 5
#6880000000
0!
0#
0&
0,
0.
01
