src/memory/ram_sp/tb_ram_sp.vcd
$date
  Thu Mar 14 09:51:14 2019
$end
$version
  GHDL v0
$end
$timescale
  1 fs
$end
$var reg 1 ! i_clk $end
$var reg 1 " i_ce $end
$var reg 1 # i_we $end
$var reg 8 $ i_addr[7:0] $end
$var reg 16 % i_data[15:0] $end
$var reg 16 & o_data[15:0] $end
$var reg 1 ' end_of_sim $end
$scope module uut $end
$var reg 1 ( i_clk $end
$var reg 1 ) i_ce $end
$var reg 1 * i_we $end
$var reg 8 + i_addr[7:0] $end
$var reg 16 , i_data[15:0] $end
$var reg 16 - o_data[15:0] $end
$comment ram is not handled $end
$upscope $end
$enddefinitions $end
#0
0!
0"
0#
b00000000 $
b0000000000000000 %
bUUUUUUUUUUUUUUUU &
0'
0(
0)
0*
b00000000 +
b0000000000000000 ,
bUUUUUUUUUUUUUUUU -
#20000000
1!
1(
#40000000
0!
1"
0(
1)
#60000000
1!
b0000000000000000 &
1(
b0000000000000000 -
#80000000
0!
b00000001 $
0(
b00000001 +
#100000000
1!
b0000000000010000 &
1(
b0000000000010000 -
#120000000
0!
b00000010 $
0(
b00000010 +
#140000000
1!
b0000000000100000 &
1(
b0000000000100000 -
#160000000
0!
b00000011 $
0(
b00000011 +
#180000000
1!
b0000000000110000 &
1(
b0000000000110000 -
#200000000
0!
b00000100 $
0(
b00000100 +
#220000000
1!
b0000000001000000 &
1(
b0000000001000000 -
#240000000
0!
b00000101 $
0(
b00000101 +
#260000000
1!
b0000000001010000 &
1(
b0000000001010000 -
#280000000
0!
b00000110 $
0(
b00000110 +
#300000000
1!
b0000000001100000 &
1(
b0000000001100000 -
#320000000
0!
b00000111 $
0(
b00000111 +
#340000000
1!
b0000000001110000 &
1(
b0000000001110000 -
#360000000
0!
b00001000 $
0(
b00001000 +
#380000000
1!
b0000000010000000 &
1(
b0000000010000000 -
#400000000
0!
b00001001 $
0(
b00001001 +
#420000000
1!
b0000000010010001 &
1(
b0000000010010001 -
#440000000
0!
b00001010 $
0(
b00001010 +
#460000000
1!
b0000000010100001 &
1(
b0000000010100001 -
#480000000
0!
b00001011 $
0(
b00001011 +
#500000000
1!
b0000000010110001 &
1(
b0000000010110001 -
#520000000
0!
b00001100 $
0(
b00001100 +
#540000000
1!
b0000000011000001 &
1(
b0000000011000001 -
#560000000
0!
b00001101 $
0(
b00001101 +
#580000000
1!
b0000000011010001 &
1(
b0000000011010001 -
#600000000
0!
b00001110 $
0(
b00001110 +
#620000000
1!
b0000000011100001 &
1(
b0000000011100001 -
#640000000
0!
b00001111 $
0(
b00001111 +
#660000000
1!
b0000000011110001 &
1(
b0000000011110001 -
#680000000
0!
b00010000 $
0(
b00010000 +
#700000000
1!
b0000000100000001 &
1(
b0000000100000001 -
#720000000
0!
b00010001 $
0(
b00010001 +
#740000000
1!
b0000000100010001 &
1(
b0000000100010001 -
#760000000
0!
b00010010 $
0(
b00010010 +
#780000000
1!
b0000000100100001 &
1(
b0000000100100001 -
#800000000
0!
b00010011 $
0(
b00010011 +
#820000000
1!
b0000000100110001 &
1(
b0000000100110001 -
#840000000
0!
b00010100 $
0(
b00010100 +
#860000000
1!
b0000000101000001 &
1(
b0000000101000001 -
#880000000
0!
b00010101 $
0(
b00010101 +
#900000000
1!
b0000000101010001 &
1(
b0000000101010001 -
#920000000
0!
b00010110 $
0(
b00010110 +
#940000000
1!
b0000000101100001 &
1(
b0000000101100001 -
#960000000
0!
b00010111 $
0(
b00010111 +
#980000000
1!
b0000000101110001 &
1(
b0000000101110001 -
#1000000000
0!
b00011000 $
0(
b00011000 +
#1020000000
1!
b0000000110000001 &
1(
b0000000110000001 -
#1040000000
0!
b00011001 $
0(
b00011001 +
#1060000000
1!
b0000000110010001 &
1(
b0000000110010001 -
#1080000000
0!
b00011010 $
0(
b00011010 +
#1100000000
1!
b0000000110100010 &
1(
b0000000110100010 -
#1120000000
0!
b00011011 $
0(
b00011011 +
#1140000000
1!
b0000000110110010 &
1(
b0000000110110010 -
#1160000000
0!
b00011100 $
0(
b00011100 +
#1180000000
1!
b0000000111000010 &
1(
b0000000111000010 -
#1200000000
0!
b00011101 $
0(
b00011101 +
#1220000000
1!
b0000000111010010 &
1(
b0000000111010010 -
#1240000000
0!
b00011110 $
0(
b00011110 +
#1260000000
1!
b0000000111100010 &
1(
b0000000111100010 -
#1280000000
0!
b00011111 $
0(
b00011111 +
#1300000000
1!
b0000000111110010 &
1(
b0000000111110010 -
#1320000000
0!
b00100000 $
0(
b00100000 +
#1340000000
1!
b0000001000000010 &
1(
b0000001000000010 -
#1360000000
0!
b00100001 $
0(
b00100001 +
#1380000000
1!
b0000001000010010 &
1(
b0000001000010010 -
#1400000000
0!
b00100010 $
0(
b00100010 +
#1420000000
1!
b0000001000100010 &
1(
b0000001000100010 -
#1440000000
0!
b00100011 $
0(
b00100011 +
#1460000000
1!
b0000001000110010 &
1(
b0000001000110010 -
#1480000000
0!
b00100100 $
0(
b00100100 +
#1500000000
1!
b0000001001000010 &
1(
b0000001001000010 -
#1520000000
0!
b00100101 $
0(
b00100101 +
#1540000000
1!
b0000001001010010 &
1(
b0000001001010010 -
#1560000000
0!
b00100110 $
0(
b00100110 +
#1580000000
1!
b0000001001100010 &
1(
b0000001001100010 -
#1600000000
0!
b00100111 $
0(
b00100111 +
#1620000000
1!
b0000001001110010 &
1(
b0000001001110010 -
#1640000000
0!
b00101000 $
0(
b00101000 +
#1660000000
1!
b0000001010000010 &
1(
b0000001010000010 -
#1680000000
0!
b00101001 $
0(
b00101001 +
#1700000000
1!
b0000001010010010 &
1(
b0000001010010010 -
#1720000000
0!
b00101010 $
0(
b00101010 +
#1740000000
1!
b0000001010100010 &
1(
b0000001010100010 -
#1760000000
0!
b00101011 $
0(
b00101011 +
#1780000000
1!
b0000001010110011 &
1(
b0000001010110011 -
#1800000000
0!
b00101100 $
0(
b00101100 +
#1820000000
1!
b0000001011000011 &
1(
b0000001011000011 -
#1840000000
0!
b00101101 $
0(
b00101101 +
#1860000000
1!
b0000001011010011 &
1(
b0000001011010011 -
#1880000000
0!
b00101110 $
0(
b00101110 +
#1900000000
1!
b0000001011100011 &
1(
b0000001011100011 -
#1920000000
0!
b00101111 $
0(
b00101111 +
#1940000000
1!
b0000001011110011 &
1(
b0000001011110011 -
#1960000000
0!
b00110000 $
0(
b00110000 +
#1980000000
1!
b0000001100000011 &
1(
b0000001100000011 -
#2000000000
0!
b00110001 $
0(
b00110001 +
#2020000000
1!
b0000001100010011 &
1(
b0000001100010011 -
#2040000000
0!
b00110010 $
0(
b00110010 +
#2060000000
1!
b0000001100100011 &
1(
b0000001100100011 -
#2080000000
0!
b00110011 $
0(
b00110011 +
#2100000000
1!
b0000001100110011 &
1(
b0000001100110011 -
#2120000000
0!
b00110100 $
0(
b00110100 +
#2140000000
1!
b0000001101000011 &
1(
b0000001101000011 -
#2160000000
0!
b00110101 $
0(
b00110101 +
#2180000000
1!
b0000001101010011 &
1(
b0000001101010011 -
#2200000000
0!
b00110110 $
0(
b00110110 +
#2220000000
1!
b0000001101100011 &
1(
b0000001101100011 -
#2240000000
0!
b00110111 $
0(
b00110111 +
#2260000000
1!
b0000001101110011 &
1(
b0000001101110011 -
#2280000000
0!
b00111000 $
0(
b00111000 +
#2300000000
1!
b0000001110000011 &
1(
b0000001110000011 -
#2320000000
0!
b00111001 $
0(
b00111001 +
#2340000000
1!
b0000001110010011 &
1(
b0000001110010011 -
#2360000000
0!
b00111010 $
0(
b00111010 +
#2380000000
1!
b0000001110100011 &
1(
b0000001110100011 -
#2400000000
0!
b00111011 $
0(
b00111011 +
#2420000000
1!
b0000001110110011 &
1(
b0000001110110011 -
#2440000000
0!
b00111100 $
0(
b00111100 +
#2460000000
1!
b0000001111000100 &
1(
b0000001111000100 -
#2480000000
0!
b00111101 $
0(
b00111101 +
#2500000000
1!
b0000001111010100 &
1(
b0000001111010100 -
#2520000000
0!
b00111110 $
0(
b00111110 +
#2540000000
1!
b0000001111100100 &
1(
b0000001111100100 -
#2560000000
0!
b00111111 $
0(
b00111111 +
#2580000000
1!
b0000001111110100 &
1(
b0000001111110100 -
#2600000000
0!
b01000000 $
0(
b01000000 +
#2620000000
1!
b0000010000000100 &
1(
b0000010000000100 -
#2640000000
0!
b01000001 $
0(
b01000001 +
#2660000000
1!
b0000010000010100 &
1(
b0000010000010100 -
#2680000000
0!
b01000010 $
0(
b01000010 +
#2700000000
1!
b0000010000100100 &
1(
b0000010000100100 -
#2720000000
0!
b01000011 $
0(
b01000011 +
#2740000000
1!
b0000010000110100 &
1(
b0000010000110100 -
#2760000000
0!
b01000100 $
0(
b01000100 +
#2780000000
1!
b0000010001000100 &
1(
b0000010001000100 -
#2800000000
0!
b01000101 $
0(
b01000101 +
#2820000000
1!
b0000010001010100 &
1(
b0000010001010100 -
#2840000000
0!
b01000110 $
0(
b01000110 +
#2860000000
1!
b0000010001100100 &
1(
b0000010001100100 -
#2880000000
0!
b01000111 $
0(
b01000111 +
#2900000000
1!
b0000010001110100 &
1(
b0000010001110100 -
#2920000000
0!
b01001000 $
0(
b01001000 +
#2940000000
1!
b0000010010000100 &
1(
b0000010010000100 -
#2960000000
0!
b01001001 $
0(
b01001001 +
#2980000000
1!
b0000010010010100 &
1(
b0000010010010100 -
#3000000000
0!
b01001010 $
0(
b01001010 +
#3020000000
1!
b0000010010100100 &
1(
b0000010010100100 -
#3040000000
0!
b01001011 $
0(
b01001011 +
#3060000000
1!
b0000010010110100 &
1(
b0000010010110100 -
#3080000000
0!
b01001100 $
0(
b01001100 +
#3100000000
1!
b0000010011000100 &
1(
b0000010011000100 -
#3120000000
0!
b01001101 $
0(
b01001101 +
#3140000000
1!
b0000010011010101 &
1(
b0000010011010101 -
#3160000000
0!
b01001110 $
0(
b01001110 +
#3180000000
1!
b0000010011100101 &
1(
b0000010011100101 -
#3200000000
0!
b01001111 $
0(
b01001111 +
#3220000000
1!
b0000010011110101 &
1(
b0000010011110101 -
#3240000000
0!
b01010000 $
0(
b01010000 +
#3260000000
1!
b0000010100000101 &
1(
b0000010100000101 -
#3280000000
0!
b01010001 $
0(
b01010001 +
#3300000000
1!
b0000010100010101 &
1(
b0000010100010101 -
#3320000000
0!
b01010010 $
0(
b01010010 +
#3340000000
1!
b0000010100100101 &
1(
b0000010100100101 -
#3360000000
0!
b01010011 $
0(
b01010011 +
#3380000000
1!
b0000010100110101 &
1(
b0000010100110101 -
#3400000000
0!
b01010100 $
0(
b01010100 +
#3420000000
1!
b0000010101000101 &
1(
b0000010101000101 -
#3440000000
0!
b01010101 $
0(
b01010101 +
#3460000000
1!
b0000010101010101 &
1(
b0000010101010101 -
#3480000000
0!
b01010110 $
0(
b01010110 +
#3500000000
1!
b0000010101100101 &
1(
b0000010101100101 -
#3520000000
0!
b01010111 $
0(
b01010111 +
#3540000000
1!
b0000010101110101 &
1(
b0000010101110101 -
#3560000000
0!
b01011000 $
0(
b01011000 +
#3580000000
1!
b0000010110000101 &
1(
b0000010110000101 -
#3600000000
0!
b01011001 $
0(
b01011001 +
#3620000000
1!
b0000010110010101 &
1(
b0000010110010101 -
#3640000000
0!
b01011010 $
0(
b01011010 +
#3660000000
1!
b0000010110100101 &
1(
b0000010110100101 -
#3680000000
0!
b01011011 $
0(
b01011011 +
#3700000000
1!
b0000010110110101 &
1(
b0000010110110101 -
#3720000000
0!
b01011100 $
0(
b01011100 +
#3740000000
1!
b0000010111000101 &
1(
b0000010111000101 -
#3760000000
0!
b01011101 $
0(
b01011101 +
#3780000000
1!
b0000010111010101 &
1(
b0000010111010101 -
#3800000000
0!
b01011110 $
0(
b01011110 +
#3820000000
1!
b0000010111100110 &
1(
b0000010111100110 -
#3840000000
0!
b01011111 $
0(
b01011111 +
#3860000000
1!
b0000010111110110 &
1(
b0000010111110110 -
#3880000000
0!
b01100000 $
0(
b01100000 +
#3900000000
1!
b0000011000000110 &
1(
b0000011000000110 -
#3920000000
0!
b01100001 $
0(
b01100001 +
#3940000000
1!
b0000011000010110 &
1(
b0000011000010110 -
#3960000000
0!
b01100010 $
0(
b01100010 +
#3980000000
1!
b0000011000100110 &
1(
b0000011000100110 -
#4000000000
0!
b01100011 $
0(
b01100011 +
#4020000000
1!
b0000011000110110 &
1(
b0000011000110110 -
#4040000000
0!
b01100100 $
0(
b01100100 +
#4060000000
1!
b0000011001000110 &
1(
b0000011001000110 -
#4080000000
0!
b01100101 $
0(
b01100101 +
#4100000000
1!
b0000011001010110 &
1(
b0000011001010110 -
#4120000000
0!
b01100110 $
0(
b01100110 +
#4140000000
1!
b0000011001100110 &
1(
b0000011001100110 -
#4160000000
0!
b01100111 $
0(
b01100111 +
#4180000000
1!
b0000011001110110 &
1(
b0000011001110110 -
#4200000000
0!
b01101000 $
0(
b01101000 +
#4220000000
1!
b0000011010000110 &
1(
b0000011010000110 -
#4240000000
0!
b01101001 $
0(
b01101001 +
#4260000000
1!
b0000011010010110 &
1(
b0000011010010110 -
#4280000000
0!
b01101010 $
0(
b01101010 +
#4300000000
1!
b0000011010100110 &
1(
b0000011010100110 -
#4320000000
0!
b01101011 $
0(
b01101011 +
#4340000000
1!
b0000011010110110 &
1(
b0000011010110110 -
#4360000000
0!
b01101100 $
0(
b01101100 +
#4380000000
1!
b0000011011000110 &
1(
b0000011011000110 -
#4400000000
0!
b01101101 $
0(
b01101101 +
#4420000000
1!
b0000011011010110 &
1(
b0000011011010110 -
#4440000000
0!
b01101110 $
0(
b01101110 +
#4460000000
1!
b0000011011100110 &
1(
b0000011011100110 -
#4480000000
0!
b01101111 $
0(
b01101111 +
#4500000000
1!
b0000011011110111 &
1(
b0000011011110111 -
#4520000000
0!
b01110000 $
0(
b01110000 +
#4540000000
1!
b0000011100000111 &
1(
b0000011100000111 -
#4560000000
0!
b01110001 $
0(
b01110001 +
#4580000000
1!
b0000011100010111 &
1(
b0000011100010111 -
#4600000000
0!
b01110010 $
0(
b01110010 +
#4620000000
1!
b0000011100100111 &
1(
b0000011100100111 -
#4640000000
0!
b01110011 $
0(
b01110011 +
#4660000000
1!
b0000011100110111 &
1(
b0000011100110111 -
#4680000000
0!
b01110100 $
0(
b01110100 +
#4700000000
1!
b0000011101000111 &
1(
b0000011101000111 -
#4720000000
0!
b01110101 $
0(
b01110101 +
#4740000000
1!
b0000011101010111 &
1(
b0000011101010111 -
#4760000000
0!
b01110110 $
0(
b01110110 +
#4780000000
1!
b0000011101100111 &
1(
b0000011101100111 -
#4800000000
0!
b01110111 $
0(
b01110111 +
#4820000000
1!
b0000011101110111 &
1(
b0000011101110111 -
#4840000000
0!
b01111000 $
0(
b01111000 +
#4860000000
1!
b0000011110000111 &
1(
b0000011110000111 -
#4880000000
0!
b01111001 $
0(
b01111001 +
#4900000000
1!
b0000011110010111 &
1(
b0000011110010111 -
#4920000000
0!
b01111010 $
0(
b01111010 +
#4940000000
1!
b0000011110100111 &
1(
b0000011110100111 -
#4960000000
0!
b01111011 $
0(
b01111011 +
#4980000000
1!
b0000011110110111 &
1(
b0000011110110111 -
#5000000000
0!
b01111100 $
0(
b01111100 +
#5020000000
1!
b0000011111000111 &
1(
b0000011111000111 -
#5040000000
0!
b01111101 $
0(
b01111101 +
#5060000000
1!
b0000011111010111 &
1(
b0000011111010111 -
#5080000000
0!
b01111110 $
0(
b01111110 +
#5100000000
1!
b0000011111100111 &
1(
b0000011111100111 -
#5120000000
0!
b01111111 $
0(
b01111111 +
#5140000000
1!
b0000011111110111 &
1(
b0000011111110111 -
#5160000000
0!
b10000000 $
0(
b10000000 +
#5180000000
1!
b0000100000001000 &
1(
b0000100000001000 -
#5200000000
0!
b10000001 $
0(
b10000001 +
#5220000000
1!
b0000100000011000 &
1(
b0000100000011000 -
#5240000000
0!
b10000010 $
0(
b10000010 +
#5260000000
1!
b0000100000101000 &
1(
b0000100000101000 -
#5280000000
0!
b10000011 $
0(
b10000011 +
#5300000000
1!
b0000100000111000 &
1(
b0000100000111000 -
#5320000000
0!
b10000100 $
0(
b10000100 +
#5340000000
1!
b0000100001001000 &
1(
b0000100001001000 -
#5360000000
0!
b10000101 $
0(
b10000101 +
#5380000000
1!
b0000100001011000 &
1(
b0000100001011000 -
#5400000000
0!
b10000110 $
0(
b10000110 +
#5420000000
1!
b0000100001101000 &
1(
b0000100001101000 -
#5440000000
0!
b10000111 $
0(
b10000111 +
#5460000000
1!
b0000100001111000 &
1(
b0000100001111000 -
#5480000000
0!
b10001000 $
0(
b10001000 +
#5500000000
1!
b0000100010001000 &
1(
b0000100010001000 -
#5520000000
0!
b10001001 $
0(
b10001001 +
#5540000000
1!
b0000100010011000 &
1(
b0000100010011000 -
#5560000000
0!
b10001010 $
0(
b10001010 +
#5580000000
1!
b0000100010101000 &
1(
b0000100010101000 -
#5600000000
0!
b10001011 $
0(
b10001011 +
#5620000000
1!
b0000100010111000 &
1(
b0000100010111000 -
#5640000000
0!
b10001100 $
0(
b10001100 +
#5660000000
1!
b0000100011001000 &
1(
b0000100011001000 -
#5680000000
0!
b10001101 $
0(
b10001101 +
#5700000000
1!
b0000100011011000 &
1(
b0000100011011000 -
#5720000000
0!
b10001110 $
0(
b10001110 +
#5740000000
1!
b0000100011101000 &
1(
b0000100011101000 -
#5760000000
0!
b10001111 $
0(
b10001111 +
#5780000000
1!
b0000100011111000 &
1(
b0000100011111000 -
#5800000000
0!
b10010000 $
0(
b10010000 +
#5820000000
1!
b0000100100001000 &
1(
b0000100100001000 -
#5840000000
0!
b10010001 $
0(
b10010001 +
#5860000000
1!
b0000100100011001 &
1(
b0000100100011001 -
#5880000000
0!
b10010010 $
0(
b10010010 +
#5900000000
1!
b0000100100101001 &
1(
b0000100100101001 -
#5920000000
0!
b10010011 $
0(
b10010011 +
#5940000000
1!
b0000100100111001 &
1(
b0000100100111001 -
#5960000000
0!
b10010100 $
0(
b10010100 +
#5980000000
1!
b0000100101001001 &
1(
b0000100101001001 -
#6000000000
0!
b10010101 $
0(
b10010101 +
#6020000000
1!
b0000100101011001 &
1(
b0000100101011001 -
#6040000000
0!
b10010110 $
0(
b10010110 +
#6060000000
1!
b0000100101101001 &
1(
b0000100101101001 -
#6080000000
0!
b10010111 $
0(
b10010111 +
#6100000000
1!
b0000100101111001 &
1(
b0000100101111001 -
#6120000000
0!
b10011000 $
0(
b10011000 +
#6140000000
1!
b0000100110001001 &
1(
b0000100110001001 -
#6160000000
0!
b10011001 $
0(
b10011001 +
#6180000000
1!
b0000100110011001 &
1(
b0000100110011001 -
#6200000000
0!
b10011010 $
0(
b10011010 +
#6220000000
1!
b0000100110101001 &
1(
b0000100110101001 -
#6240000000
0!
b10011011 $
0(
b10011011 +
#6260000000
1!
b0000100110111001 &
1(
b0000100110111001 -
#6280000000
0!
b10011100 $
0(
b10011100 +
#6300000000
1!
b0000100111001001 &
1(
b0000100111001001 -
#6320000000
0!
b10011101 $
0(
b10011101 +
#6340000000
1!
b0000100111011001 &
1(
b0000100111011001 -
#6360000000
0!
b10011110 $
0(
b10011110 +
#6380000000
1!
b0000100111101001 &
1(
b0000100111101001 -
#6400000000
0!
b10011111 $
0(
b10011111 +
#6420000000
1!
b0000100111111001 &
1(
b0000100111111001 -
#6440000000
0!
b10100000 $
0(
b10100000 +
#6460000000
1!
b0000101000001001 &
1(
b0000101000001001 -
#6480000000
0!
b10100001 $
0(
b10100001 +
#6500000000
1!
b0000101000011001 &
1(
b0000101000011001 -
#6520000000
0!
b10100010 $
0(
b10100010 +
#6540000000
1!
b0000101000101010 &
1(
b0000101000101010 -
#6560000000
0!
b10100011 $
0(
b10100011 +
#6580000000
1!
b0000101000111010 &
1(
b0000101000111010 -
#6600000000
0!
b10100100 $
0(
b10100100 +
#6620000000
1!
b0000101001001010 &
1(
b0000101001001010 -
#6640000000
0!
b10100101 $
0(
b10100101 +
#6660000000
1!
b0000101001011010 &
1(
b0000101001011010 -
#6680000000
0!
b10100110 $
0(
b10100110 +
#6700000000
1!
b0000101001101010 &
1(
b0000101001101010 -
#6720000000
0!
b10100111 $
0(
b10100111 +
#6740000000
1!
b0000101001111010 &
1(
b0000101001111010 -
#6760000000
0!
b10101000 $
0(
b10101000 +
#6780000000
1!
b0000101010001010 &
1(
b0000101010001010 -
#6800000000
0!
b10101001 $
0(
b10101001 +
#6820000000
1!
b0000101010011010 &
1(
b0000101010011010 -
#6840000000
0!
b10101010 $
0(
b10101010 +
#6860000000
1!
b0000101010101010 &
1(
b0000101010101010 -
#6880000000
0!
b10101011 $
0(
b10101011 +
#6900000000
1!
b0000101010111010 &
1(
b0000101010111010 -
#6920000000
0!
b10101100 $
0(
b10101100 +
#6940000000
1!
b0000101011001010 &
1(
b0000101011001010 -
#6960000000
0!
b10101101 $
0(
b10101101 +
#6980000000
1!
b0000101011011010 &
1(
b0000101011011010 -
#7000000000
0!
b10101110 $
0(
b10101110 +
#7020000000
1!
b0000101011101010 &
1(
b0000101011101010 -
#7040000000
0!
b10101111 $
0(
b10101111 +
#7060000000
1!
b0000101011111010 &
1(
b0000101011111010 -
#7080000000
0!
b10110000 $
0(
b10110000 +
#7100000000
1!
b0000101100001010 &
1(
b0000101100001010 -
#7120000000
0!
b10110001 $
0(
b10110001 +
#7140000000
1!
b0000101100011010 &
1(
b0000101100011010 -
#7160000000
0!
b10110010 $
0(
b10110010 +
#7180000000
1!
b0000101100101010 &
1(
b0000101100101010 -
#7200000000
0!
b10110011 $
0(
b10110011 +
#7220000000
1!
b0000101100111011 &
1(
b0000101100111011 -
#7240000000
0!
b10110100 $
0(
b10110100 +
#7260000000
1!
b0000101101001011 &
1(
b0000101101001011 -
#7280000000
0!
b10110101 $
0(
b10110101 +
#7300000000
1!
b0000101101011011 &
1(
b0000101101011011 -
#7320000000
0!
b10110110 $
0(
b10110110 +
#7340000000
1!
b0000101101101011 &
1(
b0000101101101011 -
#7360000000
0!
b10110111 $
0(
b10110111 +
#7380000000
1!
b0000101101111011 &
1(
b0000101101111011 -
#7400000000
0!
b10111000 $
0(
b10111000 +
#7420000000
1!
b0000101110001011 &
1(
b0000101110001011 -
#7440000000
0!
b10111001 $
0(
b10111001 +
#7460000000
1!
b0000101110011011 &
1(
b0000101110011011 -
#7480000000
0!
b10111010 $
0(
b10111010 +
#7500000000
1!
b0000101110101011 &
1(
b0000101110101011 -
#7520000000
0!
b10111011 $
0(
b10111011 +
#7540000000
1!
b0000101110111011 &
1(
b0000101110111011 -
#7560000000
0!
b10111100 $
0(
b10111100 +
#7580000000
1!
b0000101111001011 &
1(
b0000101111001011 -
#7600000000
0!
b10111101 $
0(
b10111101 +
#7620000000
1!
b0000101111011011 &
1(
b0000101111011011 -
#7640000000
0!
b10111110 $
0(
b10111110 +
#7660000000
1!
b0000101111101011 &
1(
b0000101111101011 -
#7680000000
0!
b10111111 $
0(
b10111111 +
#7700000000
1!
b0000101111111011 &
1(
b0000101111111011 -
#7720000000
0!
b11000000 $
0(
b11000000 +
#7740000000
1!
b0000110000001011 &
1(
b0000110000001011 -
#7760000000
0!
b11000001 $
0(
b11000001 +
#7780000000
1!
b0000110000011011 &
1(
b0000110000011011 -
#7800000000
0!
b11000010 $
0(
b11000010 +
#7820000000
1!
b0000110000101011 &
1(
b0000110000101011 -
#7840000000
0!
b11000011 $
0(
b11000011 +
#7860000000
1!
b0000110000111011 &
1(
b0000110000111011 -
#7880000000
0!
b11000100 $
0(
b11000100 +
#7900000000
1!
b0000110001001100 &
1(
b0000110001001100 -
#7920000000
0!
b11000101 $
0(
b11000101 +
#7940000000
1!
b0000110001011100 &
1(
b0000110001011100 -
#7960000000
0!
b11000110 $
0(
b11000110 +
#7980000000
1!
b0000110001101100 &
1(
b0000110001101100 -
#8000000000
0!
b11000111 $
0(
b11000111 +
#8020000000
1!
b0000110001111100 &
1(
b0000110001111100 -
#8040000000
0!
b11001000 $
0(
b11001000 +
#8060000000
1!
b0000110010001100 &
1(
b0000110010001100 -
#8080000000
0!
b11001001 $
0(
b11001001 +
#8100000000
1!
b0000110010011100 &
1(
b0000110010011100 -
#8120000000
0!
b11001010 $
0(
b11001010 +
#8140000000
1!
b0000110010101100 &
1(
b0000110010101100 -
#8160000000
0!
b11001011 $
0(
b11001011 +
#8180000000
1!
b0000110010111100 &
1(
b0000110010111100 -
#8200000000
0!
b11001100 $
0(
b11001100 +
#8220000000
1!
b0000110011001100 &
1(
b0000110011001100 -
#8240000000
0!
b11001101 $
0(
b11001101 +
#8260000000
1!
b0000110011011100 &
1(
b0000110011011100 -
#8280000000
0!
b11001110 $
0(
b11001110 +
#8300000000
1!
b0000110011101100 &
1(
b0000110011101100 -
#8320000000
0!
b11001111 $
0(
b11001111 +
#8340000000
1!
b0000110011111100 &
1(
b0000110011111100 -
#8360000000
0!
b11010000 $
0(
b11010000 +
#8380000000
1!
b0000110100001100 &
1(
b0000110100001100 -
#8400000000
0!
b11010001 $
0(
b11010001 +
#8420000000
1!
b0000110100011100 &
1(
b0000110100011100 -
#8440000000
0!
b11010010 $
0(
b11010010 +
#8460000000
1!
b0000110100101100 &
1(
b0000110100101100 -
#8480000000
0!
b11010011 $
0(
b11010011 +
#8500000000
1!
b0000110100111100 &
1(
b0000110100111100 -
#8520000000
0!
b11010100 $
0(
b11010100 +
#8540000000
1!
b0000110101001100 &
1(
b0000110101001100 -
#8560000000
0!
b11010101 $
0(
b11010101 +
#8580000000
1!
b0000110101011101 &
1(
b0000110101011101 -
#8600000000
0!
b11010110 $
0(
b11010110 +
#8620000000
1!
b0000110101101101 &
1(
b0000110101101101 -
#8640000000
0!
b11010111 $
0(
b11010111 +
#8660000000
1!
b0000110101111101 &
1(
b0000110101111101 -
#8680000000
0!
b11011000 $
0(
b11011000 +
#8700000000
1!
b0000110110001101 &
1(
b0000110110001101 -
#8720000000
0!
b11011001 $
0(
b11011001 +
#8740000000
1!
b0000110110011101 &
1(
b0000110110011101 -
#8760000000
0!
b11011010 $
0(
b11011010 +
#8780000000
1!
b0000110110101101 &
1(
b0000110110101101 -
#8800000000
0!
b11011011 $
0(
b11011011 +
#8820000000
1!
b0000110110111101 &
1(
b0000110110111101 -
#8840000000
0!
b11011100 $
0(
b11011100 +
#8860000000
1!
b0000110111001101 &
1(
b0000110111001101 -
#8880000000
0!
b11011101 $
0(
b11011101 +
#8900000000
1!
b0000110111011101 &
1(
b0000110111011101 -
#8920000000
0!
b11011110 $
0(
b11011110 +
#8940000000
1!
b0000110111101101 &
1(
b0000110111101101 -
#8960000000
0!
b11011111 $
0(
b11011111 +
#8980000000
1!
b0000110111111101 &
1(
b0000110111111101 -
#9000000000
0!
b11100000 $
0(
b11100000 +
#9020000000
1!
b0000111000001101 &
1(
b0000111000001101 -
#9040000000
0!
b11100001 $
0(
b11100001 +
#9060000000
1!
b0000111000011101 &
1(
b0000111000011101 -
#9080000000
0!
b11100010 $
0(
b11100010 +
#9100000000
1!
b0000111000101101 &
1(
b0000111000101101 -
#9120000000
0!
b11100011 $
0(
b11100011 +
#9140000000
1!
b0000111000111101 &
1(
b0000111000111101 -
#9160000000
0!
b11100100 $
0(
b11100100 +
#9180000000
1!
b0000111001001101 &
1(
b0000111001001101 -
#9200000000
0!
b11100101 $
0(
b11100101 +
#9220000000
1!
b0000111001011101 &
1(
b0000111001011101 -
#9240000000
0!
b11100110 $
0(
b11100110 +
#9260000000
1!
b0000111001101110 &
1(
b0000111001101110 -
#9280000000
0!
b11100111 $
0(
b11100111 +
#9300000000
1!
b0000111001111110 &
1(
b0000111001111110 -
#9320000000
0!
b11101000 $
0(
b11101000 +
#9340000000
1!
b0000111010001110 &
1(
b0000111010001110 -
#9360000000
0!
b11101001 $
0(
b11101001 +
#9380000000
1!
b0000111010011110 &
1(
b0000111010011110 -
#9400000000
0!
b11101010 $
0(
b11101010 +
#9420000000
1!
b0000111010101110 &
1(
b0000111010101110 -
#9440000000
0!
b11101011 $
0(
b11101011 +
#9460000000
1!
b0000111010111110 &
1(
b0000111010111110 -
#9480000000
0!
b11101100 $
0(
b11101100 +
#9500000000
1!
b0000111011001110 &
1(
b0000111011001110 -
#9520000000
0!
b11101101 $
0(
b11101101 +
#9540000000
1!
b0000111011011110 &
1(
b0000111011011110 -
#9560000000
0!
b11101110 $
0(
b11101110 +
#9580000000
1!
b0000111011101110 &
1(
b0000111011101110 -
#9600000000
0!
b11101111 $
0(
b11101111 +
#9620000000
1!
b0000111011111110 &
1(
b0000111011111110 -
#9640000000
0!
b11110000 $
0(
b11110000 +
#9660000000
1!
b0000111100001110 &
1(
b0000111100001110 -
#9680000000
0!
b11110001 $
0(
b11110001 +
#9700000000
1!
b0000111100011110 &
1(
b0000111100011110 -
#9720000000
0!
b11110010 $
0(
b11110010 +
#9740000000
1!
b0000111100101110 &
1(
b0000111100101110 -
#9760000000
0!
b11110011 $
0(
b11110011 +
#9780000000
1!
b0000111100111110 &
1(
b0000111100111110 -
#9800000000
0!
b11110100 $
0(
b11110100 +
#9820000000
1!
b0000111101001110 &
1(
b0000111101001110 -
#9840000000
0!
b11110101 $
0(
b11110101 +
#9860000000
1!
b0000111101011110 &
1(
b0000111101011110 -
#9880000000
0!
b11110110 $
0(
b11110110 +
#9900000000
1!
b0000111101101110 &
1(
b0000111101101110 -
#9920000000
0!
b11110111 $
0(
b11110111 +
#9940000000
1!
b0000111101111111 &
1(
b0000111101111111 -
#9960000000
0!
b11111000 $
0(
b11111000 +
#9980000000
1!
b0000111110001111 &
1(
b0000111110001111 -
#10000000000
0!
b11111001 $
0(
b11111001 +
#10020000000
1!
b0000111110011111 &
1(
b0000111110011111 -
#10040000000
0!
b11111010 $
0(
b11111010 +
#10060000000
1!
b0000111110101111 &
1(
b0000111110101111 -
#10080000000
0!
b11111011 $
0(
b11111011 +
