src/encoder/tb_p_encoder.vcd
$date
  Mon Mar 25 10:22:00 2019
$end
$version
  GHDL v0
$end
$timescale
  1 fs
$end
$var reg 1 ! i_enb $end
$var reg 8 " i_data[7:0] $end
$var reg 3 # o_bin[2:0] $end
$var reg 1 $ o_gsel $end
$var reg 1 % o_enb $end
$var reg 1 & end_of_sim $end
$scope module uut $end
$var reg 1 ' i_enb $end
$var reg 8 ( i_data[7:0] $end
$var reg 3 ) o_bin[2:0] $end
$var reg 1 * o_gsel $end
$var reg 1 + o_enb $end
$upscope $end
$enddefinitions $end
#0
0!
b00000000 "
b000 #
0$
0%
0&
0'
b00000000 (
b000 )
0*
0+
#100000000
1!
1%
1'
1+
#200000000
b00000001 "
1$
0%
b00000001 (
1*
0+
#300000000
b00000010 "
b001 #
b00000010 (
b001 )
#400000000
b00000100 "
b010 #
b00000100 (
b010 )
#500000000
b00001000 "
b011 #
b00001000 (
b011 )
#600000000
b00010000 "
b100 #
b00010000 (
b100 )
#700000000
b00100000 "
b101 #
b00100000 (
b101 )
#800000000
b01000000 "
b110 #
b01000000 (
b110 )
#900000000
b10000000 "
b111 #
b10000000 (
b111 )
#1000000000
b11111111 "
b11111111 (
b111 )
#1100000000
b01111111 "
b110 #
b01111111 (
b110 )
#1200000000
b00111111 "
b101 #
b00111111 (
b101 )
#1300000000
b00011111 "
b100 #
b00011111 (
b100 )
#1400000000
b00001111 "
b011 #
b00001111 (
b011 )
#1500000000
b00000111 "
b010 #
b00000111 (
b010 )
#1600000000
b00000011 "
b001 #
b00000011 (
b001 )
#1700000000
1&
