src/uart/receive/tb_uart_rx.vcd
$date
  Thu Mar 14 09:55:54 2019
$end
$version
  GHDL v0
$end
$timescale
  1 fs
$end
$var reg 1 ! i_clk $end
$var reg 1 " i_rst $end
$var reg 1 # i_enb $end
$var reg 1 $ i_rx $end
$var reg 1 % i_nsb $end
$var reg 2 & i_pds[1:0] $end
$var reg 8 ' i_brv[7:0] $end
$var reg 8 ( o_rxd[7:0] $end
$var reg 1 ) o_rx8 $end
$var reg 1 * o_frs $end
$var reg 1 + o_fps $end
$var reg 1 , o_fes $end
$var reg 1 - end_of_sim $end
$scope module uut $end
$var reg 1 . i_clk $end
$var reg 1 / i_rst $end
$var reg 1 0 i_enb $end
$var reg 1 1 i_rx $end
$var reg 1 2 i_nsb $end
$var reg 2 3 i_pds[1:0] $end
$var reg 8 4 i_brv[7:0] $end
$var reg 8 5 o_rxd[7:0] $end
$var reg 1 6 o_rx8 $end
$var reg 1 7 o_frs $end
$var reg 1 8 o_fps $end
$var reg 1 9 o_fes $end
$var reg 1 : s_rst $end
$var reg 1 ; s_nine_bit $end
$var reg 2 < s_stop_bits[1:0] $end
$var reg 1 = r_mid $end
$var reg 1 > s_midbit $end
$var reg 1 ? s_tmr_rst $end
$var reg 1 @ s_tmr_top $end
$var reg 8 A s_tmr[7:0] $end
$var reg 1 B s_parity $end
$var reg 1 C s_fps $end
$var reg 1 D r_sample $end
$var reg 1 E r_bitx $end
$var reg 1 F r_bit8 $end
$var reg 1 G r_fes $end
$var reg 8 H r_data[7:0] $end
$var reg 2 I r_scnt[1:0] $end
$var reg 4 J r_dcnt[3:0] $end
$comment s_state is not handled $end
$comment r_state is not handled $end
$var reg 1 K s_rx_syn $end
$var reg 1 L s_rx_rdy $end
$scope module u0 $end
$var reg 1 M i_clk $end
$var reg 1 N i_rst $end
$var reg 1 O i_ce $end
$var reg 8 P o_cnt[7:0] $end
$var reg 8 Q r_cnt[7:0] $end
$upscope $end
$upscope $end
$enddefinitions $end
#0
1!
1"
0#
1$
1%
b00 &
b01001111 '
bUUUUUUUU (
U)
U*
U+
U,
0-
1.
1/
00
11
12
b00 3
b01001111 4
bUUUUUUUU 5
U6
U7
U8
U9
1:
0;
b10 <
U=
0>
1?
0@
b00000000 A
UB
0C
UD
UE
UF
UG
bUUUUUUUU H
bUU I
bUUUU J
1K
0L
1M
1N
1O
b00000000 P
b00000000 Q
#12500000
0!
0.
0M
#25000000
1!
0*
0+
0,
1.
07
08
09
0=
0D
1M
#37500000
0!
0.
0M
#50000000
1!
1.
1M
#62500000
0!
0.
0M
#75000000
1!
1.
1M
#87500000
0!
0.
0M
#100000000
1!
1.
1M
#112500000
0!
0.
0M
#125000000
1!
1.
1M
#137500000
0!
0.
0M
#150000000
1!
1.
1M
#162500000
0!
0.
0M
#175000000
1!
1.
1M
#187500000
0!
0.
0M
#200000000
1!
1.
1M
#212500000
0!
0.
0M
#225000000
1!
1.
1M
#237500000
0!
0.
0M
#250000000
1!
0"
1#
1.
0/
10
0:
1M
#262500000
0!
0.
0M
#275000000
1!
1.
1M
#287500000
0!
0.
0M
#300000000
1!
1.
1M
#312500000
0!
0.
0M
#325000000
1!
1.
1M
#337500000
0!
0.
0M
#350000000
1!
1.
1M
#362500000
0!
0.
0M
#375000000
1!
1.
1M
#387500000
0!
0.
0M
#400000000
1!
1.
1M
#412500000
0!
0.
0M
#425000000
1!
1.
1M
#437500000
0!
0.
0M
#450000000
1!
1.
1M
#462500000
0!
0.
0M
#475000000
1!
1.
1M
#487500000
0!
0.
0M
#500000000
1!
0$
1.
01
0?
0K
1M
0N
#512500000
0!
0.
0M
#525000000
1!
1.
b00000001 A
1M
b00000001 P
b00000001 Q
#537500000
0!
0.
0M
#550000000
1!
1.
b00000010 A
1M
b00000010 P
b00000010 Q
#562500000
0!
0.
0M
#575000000
1!
1.
b00000011 A
1M
b00000011 P
b00000011 Q
#587500000
0!
0.
0M
#600000000
1!
1.
b00000100 A
1M
b00000100 P
b00000100 Q
#612500000
0!
0.
0M
#625000000
1!
1.
b00000101 A
1M
b00000101 P
b00000101 Q
#637500000
0!
0.
0M
#650000000
1!
1.
b00000110 A
1M
b00000110 P
b00000110 Q
#662500000
0!
0.
0M
#675000000
1!
1.
b00000111 A
1M
b00000111 P
b00000111 Q
#687500000
0!
0.
0M
#700000000
1!
1.
b00001000 A
1M
b00001000 P
b00001000 Q
#712500000
0!
0.
0M
#725000000
1!
1.
b00001001 A
1M
b00001001 P
b00001001 Q
#737500000
0!
0.
0M
#750000000
1!
1.
b00001010 A
1M
b00001010 P
b00001010 Q
#762500000
0!
0.
0M
#775000000
1!
1.
b00001011 A
1M
b00001011 P
b00001011 Q
#787500000
0!
0.
0M
#800000000
1!
1.
b00001100 A
1M
b00001100 P
b00001100 Q
#812500000
0!
0.
0M
#825000000
1!
1.
b00001101 A
1M
b00001101 P
b00001101 Q
#837500000
0!
0.
0M
#850000000
1!
1.
b00001110 A
1M
b00001110 P
b00001110 Q
#862500000
0!
0.
0M
#875000000
1!
1.
b00001111 A
1M
b00001111 P
b00001111 Q
#887500000
0!
0.
0M
#900000000
1!
1.
b00010000 A
1M
b00010000 P
b00010000 Q
#912500000
0!
0.
0M
#925000000
1!
1.
b00010001 A
1M
b00010001 P
b00010001 Q
#937500000
0!
0.
0M
#950000000
1!
1.
b00010010 A
1M
b00010010 P
b00010010 Q
#962500000
0!
0.
0M
#975000000
1!
1.
b00010011 A
1M
b00010011 P
b00010011 Q
#987500000
0!
0.
0M
#1000000000
1!
1.
b00010100 A
1M
b00010100 P
b00010100 Q
#1012500000
0!
0.
0M
#1025000000
1!
1.
b00010101 A
1M
b00010101 P
b00010101 Q
#1037500000
0!
0.
0M
#1050000000
1!
1.
b00010110 A
1M
b00010110 P
b00010110 Q
#1062500000
0!
0.
0M
#1075000000
1!
1.
b00010111 A
1M
b00010111 P
b00010111 Q
#1087500000
0!
0.
0M
#1100000000
1!
1.
b00011000 A
1M
b00011000 P
b00011000 Q
#1112500000
0!
0.
0M
#1125000000
1!
1.
b00011001 A
1M
b00011001 P
b00011001 Q
#1137500000
0!
0.
0M
#1150000000
1!
1.
b00011010 A
1M
b00011010 P
b00011010 Q
#1162500000
0!
0.
0M
#1175000000
1!
1.
b00011011 A
1M
b00011011 P
b00011011 Q
#1187500000
0!
0.
0M
#1200000000
1!
1.
b00011100 A
1M
b00011100 P
b00011100 Q
#1212500000
0!
0.
0M
#1225000000
1!
1.
b00011101 A
1M
b00011101 P
b00011101 Q
#1237500000
0!
0.
0M
#1250000000
1!
1.
b00011110 A
1M
b00011110 P
b00011110 Q
#1262500000
0!
0.
0M
#1275000000
1!
1.
b00011111 A
1M
b00011111 P
b00011111 Q
#1287500000
0!
0.
0M
#1300000000
1!
1.
b00100000 A
1M
b00100000 P
b00100000 Q
#1312500000
0!
0.
0M
#1325000000
1!
1.
b00100001 A
1M
b00100001 P
b00100001 Q
#1337500000
0!
0.
0M
#1350000000
1!
1.
b00100010 A
1M
b00100010 P
b00100010 Q
#1362500000
0!
0.
0M
#1375000000
1!
1.
b00100011 A
1M
b00100011 P
b00100011 Q
#1387500000
0!
0.
0M
#1400000000
1!
1.
b00100100 A
1M
b00100100 P
b00100100 Q
#1412500000
0!
0.
0M
#1425000000
1!
1.
b00100101 A
1M
b00100101 P
b00100101 Q
#1437500000
0!
0.
0M
#1450000000
1!
1.
b00100110 A
1M
b00100110 P
b00100110 Q
#1462500000
0!
0.
0M
#1475000000
1!
1.
b00100111 A
1M
b00100111 P
b00100111 Q
#1487500000
0!
0.
0M
#1500000000
1!
1.
b00101000 A
1M
b00101000 P
b00101000 Q
#1512500000
0!
0.
0M
#1525000000
1!
1.
b00101001 A
1M
b00101001 P
b00101001 Q
#1537500000
0!
0.
0M
#1550000000
1!
1.
b00101010 A
1M
b00101010 P
b00101010 Q
#1562500000
0!
0.
0M
#1575000000
1!
1.
b00101011 A
1M
b00101011 P
b00101011 Q
#1587500000
0!
0.
0M
#1600000000
1!
1.
b00101100 A
1M
b00101100 P
b00101100 Q
#1612500000
0!
0.
0M
#1625000000
1!
1.
b00101101 A
1M
b00101101 P
b00101101 Q
#1637500000
0!
0.
0M
#1650000000
1!
1.
b00101110 A
1M
b00101110 P
b00101110 Q
#1662500000
0!
0.
0M
#1675000000
1!
1.
b00101111 A
1M
b00101111 P
b00101111 Q
#1687500000
0!
0.
0M
#1700000000
1!
1.
b00110000 A
1M
b00110000 P
b00110000 Q
#1712500000
0!
0.
0M
#1725000000
1!
1.
b00110001 A
1M
b00110001 P
b00110001 Q
#1737500000
0!
0.
0M
#1750000000
1!
1.
b00110010 A
1M
b00110010 P
b00110010 Q
#1762500000
0!
0.
0M
#1775000000
1!
1.
b00110011 A
1M
b00110011 P
b00110011 Q
#1787500000
0!
0.
0M
#1800000000
1!
1.
b00110100 A
1M
b00110100 P
b00110100 Q
#1812500000
0!
0.
0M
#1825000000
1!
1.
b00110101 A
1M
b00110101 P
b00110101 Q
#1837500000
0!
0.
0M
#1850000000
1!
1.
b00110110 A
1M
b00110110 P
b00110110 Q
#1862500000
0!
0.
0M
#1875000000
1!
1.
b00110111 A
1M
b00110111 P
b00110111 Q
#1887500000
0!
0.
0M
#1900000000
1!
1.
b00111000 A
1M
b00111000 P
b00111000 Q
#1912500000
0!
0.
0M
#1925000000
1!
1.
b00111001 A
1M
b00111001 P
b00111001 Q
#1937500000
0!
0.
0M
#1950000000
1!
1.
b00111010 A
1M
b00111010 P
b00111010 Q
#1962500000
0!
0.
0M
#1975000000
1!
1.
b00111011 A
1M
b00111011 P
b00111011 Q
#1987500000
0!
0.
0M
#2000000000
1!
1.
b00111100 A
1M
b00111100 P
b00111100 Q
#2012500000
0!
0.
0M
#2025000000
1!
1.
b00111101 A
1M
b00111101 P
b00111101 Q
#2037500000
0!
0.
0M
#2050000000
1!
1.
b00111110 A
1M
b00111110 P
b00111110 Q
#2062500000
0!
0.
0M
#2075000000
1!
1.
b00111111 A
1M
b00111111 P
b00111111 Q
#2087500000
0!
0.
0M
#2100000000
1!
1.
b01000000 A
1M
b01000000 P
b01000000 Q
#2112500000
0!
0.
0M
#2125000000
1!
1.
b01000001 A
1M
b01000001 P
b01000001 Q
#2137500000
0!
0.
0M
#2150000000
1!
1.
b01000010 A
1M
b01000010 P
b01000010 Q
#2162500000
0!
0.
0M
#2175000000
1!
1.
b01000011 A
1M
b01000011 P
b01000011 Q
#2187500000
0!
0.
0M
#2200000000
1!
1.
b01000100 A
1M
b01000100 P
b01000100 Q
#2212500000
0!
0.
0M
#2225000000
1!
1.
b01000101 A
1M
b01000101 P
b01000101 Q
#2237500000
0!
0.
0M
#2250000000
1!
1.
b01000110 A
1M
b01000110 P
b01000110 Q
#2262500000
0!
0.
0M
#2275000000
1!
1.
b01000111 A
1M
b01000111 P
b01000111 Q
#2287500000
0!
0.
0M
#2300000000
1!
1.
b01001000 A
1M
b01001000 P
b01001000 Q
#2312500000
0!
0.
0M
#2325000000
1!
1.
b01001001 A
1M
b01001001 P
b01001001 Q
#2337500000
0!
0.
0M
#2350000000
1!
1.
b01001010 A
1M
b01001010 P
b01001010 Q
#2362500000
0!
0.
0M
#2375000000
1!
1.
b01001011 A
1M
b01001011 P
b01001011 Q
#2387500000
0!
0.
0M
#2400000000
1!
1.
b01001100 A
1M
b01001100 P
b01001100 Q
#2412500000
0!
0.
0M
#2425000000
1!
1.
b01001101 A
1M
b01001101 P
b01001101 Q
#2437500000
0!
0.
0M
#2450000000
1!
1.
b01001110 A
1M
b01001110 P
b01001110 Q
#2462500000
0!
0.
0M
#2475000000
1!
1.
1>
1?
1@
b01001111 A
1M
1N
b01001111 P
b01001111 Q
#2487500000
0!
0.
0M
#2500000000
1!
1.
1=
0>
0?
0@
b00000000 A
1D
0E
0F
0G
b00 I
b0000 J
1M
0N
b00000000 P
b00000000 Q
#2512500000
0!
0.
0M
#2525000000
1!
1.
b00000001 A
0D
1M
b00000001 P
b00000001 Q
#2537500000
0!
0.
0M
#2550000000
1!
1.
b00000010 A
1M
b00000010 P
b00000010 Q
#2562500000
0!
0.
0M
#2575000000
1!
1.
b00000011 A
1M
b00000011 P
b00000011 Q
#2587500000
0!
0.
0M
#2600000000
1!
1.
b00000100 A
1M
b00000100 P
b00000100 Q
#2612500000
0!
0.
0M
#2625000000
1!
1.
b00000101 A
1M
b00000101 P
b00000101 Q
#2637500000
0!
0.
0M
#2650000000
1!
1.
b00000110 A
1M
b00000110 P
b00000110 Q
#2662500000
0!
0.
0M
#2675000000
1!
1.
b00000111 A
1M
b00000111 P
b00000111 Q
#2687500000
0!
0.
0M
#2700000000
1!
1.
b00001000 A
1M
b00001000 P
b00001000 Q
#2712500000
0!
0.
0M
#2725000000
1!
1.
b00001001 A
1M
b00001001 P
b00001001 Q
#2737500000
0!
0.
0M
#2750000000
1!
1.
b00001010 A
1M
b00001010 P
b00001010 Q
#2762500000
0!
0.
0M
#2775000000
1!
1.
b00001011 A
1M
b00001011 P
b00001011 Q
#2787500000
0!
0.
0M
#2800000000
1!
1.
b00001100 A
1M
b00001100 P
b00001100 Q
#2812500000
0!
0.
0M
#2825000000
1!
1.
b00001101 A
1M
b00001101 P
b00001101 Q
#2837500000
0!
0.
0M
#2850000000
1!
1.
b00001110 A
1M
b00001110 P
b00001110 Q
#2862500000
0!
0.
0M
#2875000000
1!
1.
b00001111 A
1M
b00001111 P
b00001111 Q
#2887500000
0!
0.
0M
#2900000000
1!
1.
b00010000 A
1M
b00010000 P
b00010000 Q
#2912500000
0!
0.
0M
#2925000000
1!
1.
b00010001 A
1M
b00010001 P
b00010001 Q
#2937500000
0!
0.
0M
#2950000000
1!
1.
b00010010 A
1M
b00010010 P
b00010010 Q
#2962500000
0!
0.
0M
#2975000000
1!
1.
b00010011 A
1M
b00010011 P
b00010011 Q
#2987500000
0!
0.
0M
#3000000000
1!
1.
b00010100 A
1M
b00010100 P
b00010100 Q
#3012500000
0!
0.
0M
#3025000000
1!
1.
b00010101 A
1M
b00010101 P
b00010101 Q
#3037500000
0!
0.
0M
#3050000000
1!
1.
b00010110 A
1M
b00010110 P
b00010110 Q
#3062500000
0!
0.
0M
#3075000000
1!
1.
b00010111 A
1M
b00010111 P
b00010111 Q
#3087500000
0!
0.
0M
#3100000000
1!
1.
b00011000 A
1M
b00011000 P
b00011000 Q
#3112500000
0!
0.
0M
#3125000000
1!
1.
b00011001 A
1M
b00011001 P
b00011001 Q
#3137500000
0!
0.
0M
#3150000000
1!
1.
b00011010 A
1M
b00011010 P
b00011010 Q
#3162500000
0!
0.
0M
#3175000000
1!
1.
b00011011 A
1M
b00011011 P
b00011011 Q
#3187500000
0!
0.
0M
#3200000000
1!
1.
b00011100 A
1M
b00011100 P
b00011100 Q
#3212500000
0!
0.
0M
#3225000000
1!
1.
b00011101 A
1M
b00011101 P
b00011101 Q
#3237500000
0!
0.
0M
#3250000000
1!
1.
b00011110 A
1M
b00011110 P
b00011110 Q
#3262500000
0!
0.
0M
#3275000000
1!
1.
b00011111 A
1M
b00011111 P
b00011111 Q
#3287500000
0!
0.
0M
#3300000000
1!
1.
b00100000 A
1M
b00100000 P
b00100000 Q
#3312500000
0!
0.
0M
#3325000000
1!
1.
b00100001 A
1M
b00100001 P
b00100001 Q
#3337500000
0!
0.
0M
#3350000000
1!
1.
b00100010 A
1M
b00100010 P
b00100010 Q
#3362500000
0!
0.
0M
#3375000000
1!
1.
b00100011 A
1M
b00100011 P
b00100011 Q
#3387500000
0!
0.
0M
#3400000000
1!
1.
b00100100 A
1M
b00100100 P
b00100100 Q
#3412500000
0!
0.
0M
#3425000000
1!
1.
b00100101 A
1M
b00100101 P
b00100101 Q
#3437500000
0!
0.
0M
#3450000000
1!
1.
b00100110 A
1M
b00100110 P
b00100110 Q
#3462500000
0!
0.
0M
#3475000000
1!
1.
b00100111 A
1M
b00100111 P
b00100111 Q
#3487500000
0!
0.
0M
#3500000000
1!
1.
b00101000 A
1M
b00101000 P
b00101000 Q
#3512500000
0!
0.
0M
#3525000000
1!
1.
b00101001 A
1M
b00101001 P
b00101001 Q
#3537500000
0!
0.
0M
#3550000000
1!
1.
b00101010 A
1M
b00101010 P
b00101010 Q
#3562500000
0!
0.
0M
#3575000000
1!
1.
b00101011 A
1M
b00101011 P
b00101011 Q
#3587500000
0!
0.
0M
#3600000000
1!
1.
b00101100 A
1M
b00101100 P
b00101100 Q
#3612500000
0!
0.
0M
#3625000000
1!
1.
b00101101 A
1M
b00101101 P
b00101101 Q
#3637500000
0!
0.
0M
#3650000000
1!
1.
b00101110 A
1M
b00101110 P
b00101110 Q
#3662500000
0!
0.
0M
#3675000000
1!
1.
b00101111 A
1M
b00101111 P
b00101111 Q
#3687500000
0!
0.
0M
#3700000000
1!
1.
b00110000 A
1M
b00110000 P
b00110000 Q
#3712500000
0!
0.
0M
#3725000000
1!
1.
b00110001 A
1M
b00110001 P
b00110001 Q
#3737500000
0!
0.
0M
#3750000000
1!
1.
b00110010 A
1M
b00110010 P
b00110010 Q
#3762500000
0!
0.
0M
#3775000000
1!
1.
b00110011 A
1M
b00110011 P
b00110011 Q
#3787500000
0!
0.
0M
#3800000000
1!
1.
b00110100 A
1M
b00110100 P
b00110100 Q
#3812500000
0!
0.
0M
#3825000000
1!
1.
b00110101 A
1M
b00110101 P
b00110101 Q
#3837500000
0!
0.
0M
#3850000000
1!
1.
b00110110 A
1M
b00110110 P
b00110110 Q
#3862500000
0!
0.
0M
#3875000000
1!
1.
b00110111 A
1M
b00110111 P
b00110111 Q
#3887500000
0!
0.
0M
#3900000000
1!
1.
b00111000 A
1M
b00111000 P
b00111000 Q
#3912500000
0!
0.
0M
#3925000000
1!
1.
b00111001 A
1M
b00111001 P
b00111001 Q
#3937500000
0!
0.
0M
#3950000000
1!
1.
b00111010 A
1M
b00111010 P
b00111010 Q
#3962500000
0!
0.
0M
#3975000000
1!
1.
b00111011 A
1M
b00111011 P
b00111011 Q
#3987500000
0!
0.
0M
#4000000000
1!
1.
b00111100 A
1M
b00111100 P
b00111100 Q
#4012500000
0!
0.
0M
#4025000000
1!
1.
b00111101 A
1M
b00111101 P
b00111101 Q
#4037500000
0!
0.
0M
#4050000000
1!
1.
b00111110 A
1M
b00111110 P
b00111110 Q
#4062500000
0!
0.
0M
#4075000000
1!
1.
b00111111 A
1M
b00111111 P
b00111111 Q
#4087500000
0!
0.
0M
#4100000000
1!
1.
b01000000 A
1M
b01000000 P
b01000000 Q
#4112500000
0!
0.
0M
#4125000000
1!
1.
b01000001 A
1M
b01000001 P
b01000001 Q
#4137500000
0!
0.
0M
#4150000000
1!
1.
b01000010 A
1M
b01000010 P
b01000010 Q
#4162500000
0!
0.
0M
#4175000000
1!
1.
b01000011 A
1M
b01000011 P
b01000011 Q
#4187500000
0!
0.
0M
#4200000000
1!
1.
b01000100 A
1M
b01000100 P
b01000100 Q
#4212500000
0!
0.
0M
#4225000000
1!
1.
b01000101 A
1M
b01000101 P
b01000101 Q
#4237500000
0!
0.
0M
#4250000000
1!
1.
b01000110 A
1M
b01000110 P
b01000110 Q
#4262500000
0!
0.
0M
#4275000000
1!
1.
b01000111 A
1M
b01000111 P
b01000111 Q
#4287500000
0!
0.
0M
#4300000000
1!
1.
b01001000 A
1M
b01001000 P
b01001000 Q
#4312500000
0!
0.
0M
#4325000000
1!
1.
b01001001 A
1M
b01001001 P
b01001001 Q
#4337500000
0!
0.
0M
#4350000000
1!
1.
b01001010 A
1M
b01001010 P
b01001010 Q
#4362500000
0!
0.
0M
#4375000000
1!
1.
b01001011 A
1M
b01001011 P
b01001011 Q
#4387500000
0!
0.
0M
#4400000000
1!
1.
b01001100 A
1M
b01001100 P
b01001100 Q
#4412500000
0!
0.
0M
#4425000000
1!
1.
b01001101 A
1M
b01001101 P
b01001101 Q
#4437500000
0!
0.
0M
#4450000000
1!
1.
b01001110 A
1M
b01001110 P
b01001110 Q
#4462500000
0!
0.
0M
#4475000000
1!
1.
1?
1@
b01001111 A
1M
1N
b01001111 P
b01001111 Q
#4487500000
0!
0.
0M
#4500000000
1!
1.
0=
0>
0?
0@
b00000000 A
1M
0N
b00000000 P
b00000000 Q
#4512500000
0!
0.
0M
#4525000000
1!
1.
b00000001 A
1M
b00000001 P
b00000001 Q
#4537500000
0!
0.
0M
#4550000000
1!
1.
b00000010 A
1M
b00000010 P
b00000010 Q
#4562500000
0!
0.
0M
#4575000000
1!
1.
b00000011 A
1M
b00000011 P
b00000011 Q
#4587500000
0!
0.
0M
#4600000000
1!
1.
b00000100 A
1M
b00000100 P
b00000100 Q
#4612500000
0!
0.
0M
#4625000000
1!
1.
b00000101 A
1M
b00000101 P
b00000101 Q
#4637500000
0!
0.
0M
#4650000000
1!
1.
b00000110 A
1M
b00000110 P
b00000110 Q
#4662500000
0!
0.
0M
#4675000000
1!
1.
b00000111 A
1M
b00000111 P
b00000111 Q
#4687500000
0!
0.
0M
#4700000000
1!
1.
b00001000 A
1M
b00001000 P
b00001000 Q
#4712500000
0!
0.
0M
#4725000000
1!
1.
b00001001 A
1M
b00001001 P
b00001001 Q
#4737500000
0!
0.
0M
#4750000000
1!
1.
b00001010 A
1M
b00001010 P
b00001010 Q
#4762500000
0!
0.
0M
#4775000000
1!
1.
b00001011 A
1M
b00001011 P
b00001011 Q
#4787500000
0!
0.
0M
#4800000000
1!
1.
b00001100 A
1M
b00001100 P
b00001100 Q
#4812500000
0!
0.
0M
#4825000000
1!
1.
b00001101 A
1M
b00001101 P
b00001101 Q
#4837500000
0!
0.
0M
#4850000000
1!
1.
b00001110 A
1M
b00001110 P
b00001110 Q
#4862500000
0!
0.
0M
#4875000000
1!
1.
b00001111 A
1M
b00001111 P
b00001111 Q
#4887500000
0!
0.
0M
#4900000000
1!
1.
b00010000 A
1M
b00010000 P
b00010000 Q
#4912500000
0!
0.
0M
#4925000000
1!
1.
b00010001 A
1M
b00010001 P
b00010001 Q
#4937500000
0!
0.
0M
#4950000000
1!
1.
b00010010 A
1M
b00010010 P
b00010010 Q
#4962500000
0!
0.
0M
#4975000000
1!
1.
b00010011 A
1M
b00010011 P
b00010011 Q
#4987500000
0!
0.
0M
#5000000000
1!
1.
b00010100 A
1M
b00010100 P
b00010100 Q
#5012500000
0!
0.
0M
#5025000000
1!
1.
b00010101 A
1M
b00010101 P
b00010101 Q
#5037500000
0!
0.
0M
#5050000000
1!
1.
b00010110 A
1M
b00010110 P
b00010110 Q
#5062500000
0!
0.
0M
#5075000000
1!
1.
b00010111 A
1M
b00010111 P
b00010111 Q
#5087500000
0!
0.
0M
#5100000000
1!
1.
b00011000 A
1M
b00011000 P
b00011000 Q
#5112500000
0!
0.
0M
#5125000000
1!
1.
b00011001 A
1M
b00011001 P
b00011001 Q
#5137500000
0!
0.
0M
#5150000000
1!
1.
b00011010 A
1M
b00011010 P
b00011010 Q
#5162500000
0!
0.
0M
#5175000000
1!
1.
b00011011 A
1M
b00011011 P
b00011011 Q
#5187500000
0!
0.
0M
#5200000000
1!
1.
b00011100 A
1M
b00011100 P
b00011100 Q
#5212500000
0!
0.
0M
#5225000000
1!
1.
b00011101 A
1M
b00011101 P
b00011101 Q
#5237500000
0!
0.
0M
#5250000000
1!
1.
b00011110 A
1M
b00011110 P
b00011110 Q
#5262500000
0!
0.
0M
#5275000000
1!
1.
b00011111 A
1M
b00011111 P
b00011111 Q
#5287500000
0!
0.
0M
#5300000000
1!
1.
b00100000 A
1M
b00100000 P
b00100000 Q
#5312500000
0!
0.
0M
#5325000000
1!
1.
b00100001 A
1M
b00100001 P
b00100001 Q
#5337500000
0!
0.
0M
#5350000000
1!
1.
b00100010 A
1M
b00100010 P
b00100010 Q
#5362500000
0!
0.
0M
#5375000000
1!
1.
b00100011 A
1M
b00100011 P
b00100011 Q
#5387500000
0!
0.
0M
#5400000000
1!
1.
b00100100 A
1M
b00100100 P
b00100100 Q
#5412500000
0!
0.
0M
#5425000000
1!
1.
b00100101 A
1M
b00100101 P
b00100101 Q
#5437500000
0!
0.
0M
#5450000000
1!
1.
b00100110 A
1M
b00100110 P
b00100110 Q
#5462500000
0!
0.
0M
#5475000000
1!
1.
b00100111 A
1M
b00100111 P
b00100111 Q
#5487500000
0!
0.
0M
#5500000000
1!
1.
b00101000 A
1M
b00101000 P
b00101000 Q
#5512500000
0!
0.
0M
#5525000000
1!
1.
b00101001 A
1M
b00101001 P
b00101001 Q
#5537500000
0!
0.
0M
#5550000000
1!
1.
b00101010 A
1M
b00101010 P
b00101010 Q
#5562500000
0!
0.
0M
#5575000000
1!
1.
b00101011 A
1M
b00101011 P
b00101011 Q
#5587500000
0!
0.
0M
#5600000000
1!
1.
b00101100 A
1M
b00101100 P
b00101100 Q
#5612500000
0!
0.
0M
#5625000000
1!
1.
b00101101 A
1M
b00101101 P
b00101101 Q
#5637500000
0!
0.
0M
#5650000000
1!
1.
b00101110 A
1M
b00101110 P
b00101110 Q
#5662500000
0!
0.
0M
#5675000000
1!
1.
b00101111 A
1M
b00101111 P
b00101111 Q
#5687500000
0!
0.
0M
#5700000000
1!
1.
b00110000 A
1M
b00110000 P
b00110000 Q
#5712500000
0!
0.
0M
#5725000000
1!
1.
b00110001 A
1M
b00110001 P
b00110001 Q
#5737500000
0!
0.
0M
#5750000000
1!
1.
b00110010 A
1M
b00110010 P
b00110010 Q
#5762500000
0!
0.
0M
#5775000000
1!
1.
b00110011 A
1M
b00110011 P
b00110011 Q
#5787500000
0!
0.
0M
#5800000000
1!
1.
b00110100 A
1M
b00110100 P
b00110100 Q
#5812500000
0!
0.
0M
#5825000000
1!
1.
b00110101 A
1M
b00110101 P
b00110101 Q
#5837500000
0!
0.
0M
#5850000000
1!
1.
b00110110 A
1M
b00110110 P
b00110110 Q
#5862500000
0!
0.
0M
#5875000000
1!
1.
b00110111 A
1M
b00110111 P
b00110111 Q
#5887500000
0!
0.
0M
#5900000000
1!
1.
b00111000 A
1M
b00111000 P
b00111000 Q
#5912500000
0!
0.
0M
#5925000000
1!
1.
b00111001 A
1M
b00111001 P
b00111001 Q
#5937500000
0!
0.
0M
#5950000000
1!
1.
b00111010 A
1M
b00111010 P
b00111010 Q
#5962500000
0!
0.
0M
#5975000000
1!
1.
b00111011 A
1M
b00111011 P
b00111011 Q
#5987500000
0!
0.
0M
#6000000000
1!
1.
b00111100 A
1M
b00111100 P
b00111100 Q
#6012500000
0!
0.
0M
#6025000000
1!
1.
b00111101 A
1M
b00111101 P
b00111101 Q
#6037500000
0!
0.
0M
#6050000000
1!
1.
b00111110 A
1M
b00111110 P
b00111110 Q
#6062500000
0!
0.
0M
#6075000000
1!
1.
b00111111 A
1M
b00111111 P
b00111111 Q
#6087500000
0!
0.
0M
#6100000000
1!
1.
b01000000 A
1M
b01000000 P
b01000000 Q
#6112500000
0!
0.
0M
#6125000000
1!
1.
b01000001 A
1M
b01000001 P
b01000001 Q
#6137500000
0!
0.
0M
#6150000000
1!
1.
b01000010 A
1M
b01000010 P
b01000010 Q
#6162500000
0!
0.
0M
#6175000000
1!
1.
b01000011 A
1M
b01000011 P
b01000011 Q
#6187500000
0!
0.
0M
#6200000000
1!
1.
b01000100 A
1M
b01000100 P
b01000100 Q
#6212500000
0!
0.
0M
#6225000000
1!
1.
b01000101 A
1M
b01000101 P
b01000101 Q
#6237500000
0!
0.
0M
#6250000000
1!
1.
b01000110 A
1M
b01000110 P
b01000110 Q
#6262500000
0!
0.
0M
#6275000000
1!
1.
b01000111 A
1M
b01000111 P
b01000111 Q
#6287500000
0!
0.
0M
#6300000000
1!
1.
b01001000 A
1M
b01001000 P
b01001000 Q
#6312500000
0!
0.
0M
#6325000000
1!
1.
b01001001 A
1M
b01001001 P
b01001001 Q
#6337500000
0!
0.
0M
#6350000000
1!
1.
b01001010 A
1M
b01001010 P
b01001010 Q
#6362500000
0!
0.
0M
#6375000000
1!
1.
b01001011 A
1M
b01001011 P
b01001011 Q
#6387500000
0!
0.
0M
#6400000000
1!
1.
b01001100 A
1M
b01001100 P
b01001100 Q
#6412500000
0!
0.
0M
#6425000000
1!
1.
b01001101 A
1M
b01001101 P
b01001101 Q
#6437500000
0!
0.
0M
#6450000000
1!
1.
b01001110 A
1M
b01001110 P
b01001110 Q
#6462500000
0!
0.
0M
#6475000000
1!
1.
1>
1?
1@
b01001111 A
1M
1N
b01001111 P
b01001111 Q
#6487500000
0!
0.
0M
#6500000000
1!
1.
1=
0>
0?
0@
b00000000 A
1D
b0UUUUUUU H
b0001 J
1M
0N
b00000000 P
b00000000 Q
#6512500000
0!
0.
0M
#6525000000
1!
1.
b00000001 A
0D
1M
b00000001 P
b00000001 Q
#6537500000
0!
0.
0M
#6550000000
1!
1.
b00000010 A
1M
b00000010 P
b00000010 Q
#6562500000
0!
0.
0M
#6575000000
1!
1.
b00000011 A
1M
b00000011 P
b00000011 Q
#6587500000
0!
0.
0M
#6600000000
1!
1.
b00000100 A
1M
b00000100 P
b00000100 Q
#6612500000
0!
0.
0M
#6625000000
1!
1.
b00000101 A
1M
b00000101 P
b00000101 Q
#6637500000
0!
0.
0M
#6650000000
1!
1.
b00000110 A
1M
b00000110 P
b00000110 Q
#6662500000
0!
0.
0M
#6675000000
1!
1.
b00000111 A
1M
b00000111 P
b00000111 Q
#6687500000
0!
0.
0M
#6700000000
1!
1.
b00001000 A
1M
b00001000 P
b00001000 Q
#6712500000
0!
0.
0M
#6725000000
1!
1.
b00001001 A
1M
b00001001 P
b00001001 Q
#6737500000
0!
0.
0M
#6750000000
1!
1.
b00001010 A
1M
b00001010 P
b00001010 Q
#6762500000
0!
0.
0M
#6775000000
1!
1.
b00001011 A
1M
b00001011 P
b00001011 Q
#6787500000
0!
0.
0M
